<?xml version="1.0" encoding="UTF-8" standalone="no"?>
<!-- Created with Inkscape (http://www.inkscape.org/) -->

<svg
   xmlns:dc="http://purl.org/dc/elements/1.1/"
   xmlns:cc="http://creativecommons.org/ns#"
   xmlns:rdf="http://www.w3.org/1999/02/22-rdf-syntax-ns#"
   xmlns:svg="http://www.w3.org/2000/svg"
   xmlns="http://www.w3.org/2000/svg"
   xmlns:sodipodi="http://sodipodi.sourceforge.net/DTD/sodipodi-0.dtd"
   xmlns:inkscape="http://www.inkscape.org/namespaces/inkscape"
   width="952.46539"
   height="589.94958"
   id="svg2"
   version="1.1"
   inkscape:version="0.92.3 (2405546, 2018-03-11)"
   sodipodi:docname="bode16.svg">
  <defs
     id="defs4" />
  <sodipodi:namedview
     id="base"
     pagecolor="#ffffff"
     bordercolor="#666666"
     borderopacity="1.0"
     inkscape:pageopacity="0.0"
     inkscape:pageshadow="2"
     inkscape:zoom="0.96194206"
     inkscape:cx="341.10192"
     inkscape:cy="275.22448"
     inkscape:document-units="px"
     inkscape:current-layer="layer1"
     showgrid="false"
     inkscape:window-width="1382"
     inkscape:window-height="823"
     inkscape:window-x="47"
     inkscape:window-y="40"
     inkscape:window-maximized="0"
     fit-margin-top="0"
     fit-margin-left="0"
     fit-margin-right="0"
     fit-margin-bottom="0" />
  <metadata
     id="metadata7">
    <rdf:RDF>
      <cc:Work
         rdf:about="">
        <dc:format>image/svg+xml</dc:format>
        <dc:type
           rdf:resource="http://purl.org/dc/dcmitype/StillImage" />
        <dc:title />
      </cc:Work>
    </rdf:RDF>
  </metadata>
  <g
     inkscape:label="Capa 1"
     inkscape:groupmode="layer"
     id="layer1"
     transform="translate(-51.767317,-419.54482)">
    <g
       id="g3924">
      <g
         id="g3048">
        <path
           style="fill:none;stroke:#000000;stroke-width:1.51181102;stroke-linecap:butt;stroke-linejoin:miter;stroke-miterlimit:4;stroke-dasharray:9.07086614, 1.51181102;stroke-dashoffset:0;stroke-opacity:1"
           d="M 164.36311,803.67693 H 954.97732"
           id="path2985"
           inkscape:connector-curvature="0" />
        <path
           style="fill:none;stroke:#000000;stroke-width:1.51181102;stroke-linecap:butt;stroke-linejoin:miter;stroke-miterlimit:4;stroke-dasharray:9.07086614, 1.51181102;stroke-dashoffset:0;stroke-opacity:1"
           d="M 164.36311,694.3296 H 954.97732"
           id="path2985-4"
           inkscape:connector-curvature="0" />
        <path
           style="fill:none;stroke:#000000;stroke-width:1.51181102;stroke-linecap:butt;stroke-linejoin:miter;stroke-miterlimit:4;stroke-dasharray:9.07086614, 1.51181102;stroke-dashoffset:0;stroke-opacity:1"
           d="M 164.36311,913.02427 H 954.97732"
           id="path2985-9"
           inkscape:connector-curvature="0" />
        <path
           style="fill:none;stroke:#000000;stroke-width:1.51181102;stroke-linecap:butt;stroke-linejoin:miter;stroke-miterlimit:4;stroke-dasharray:9.07086614, 1.51181102;stroke-dashoffset:0;stroke-opacity:1"
           d="M 164.36311,475.63494 H 954.97732"
           id="path2985-6"
           inkscape:connector-curvature="0" />
        <path
           style="fill:none;stroke:#000000;stroke-width:1.51181102;stroke-linecap:butt;stroke-linejoin:miter;stroke-miterlimit:4;stroke-dasharray:9.07086614, 1.51181102;stroke-dashoffset:0;stroke-opacity:1"
           d="M 954.97726,913.36148 V 475.29773"
           id="path2985-2"
           inkscape:connector-curvature="0" />
        <path
           style="fill:none;stroke:#000000;stroke-width:1.51181102;stroke-linecap:butt;stroke-linejoin:miter;stroke-miterlimit:4;stroke-dasharray:9.07086614, 1.51181102;stroke-dashoffset:0;stroke-opacity:1"
           d="M 164.36311,913.36148 V 475.29773"
           id="path2985-2-0"
           inkscape:connector-curvature="0" />
        <path
           style="fill:none;stroke:#000000;stroke-width:1.51181102;stroke-linecap:butt;stroke-linejoin:miter;stroke-miterlimit:4;stroke-dasharray:9.07086614, 1.51181102;stroke-dashoffset:0;stroke-opacity:1"
           d="M 757.32374,913.36148 V 475.29773"
           id="path2985-2-5"
           inkscape:connector-curvature="0" />
        <path
           style="fill:none;stroke:#000000;stroke-width:1.51181102;stroke-linecap:butt;stroke-linejoin:miter;stroke-miterlimit:4;stroke-dasharray:9.07086614, 1.51181102;stroke-dashoffset:0;stroke-opacity:1"
           d="M 559.67023,913.36148 V 475.29773"
           id="path2985-2-6"
           inkscape:connector-curvature="0" />
        <path
           style="fill:none;stroke:#000000;stroke-width:1.51181102;stroke-linecap:butt;stroke-linejoin:miter;stroke-miterlimit:4;stroke-dasharray:9.07086614, 1.51181102;stroke-dashoffset:0;stroke-opacity:1"
           d="M 362.01668,913.36148 V 475.29773"
           id="path2985-2-3"
           inkscape:connector-curvature="0" />
        <text
           xml:space="preserve"
           style="font-style:normal;font-variant:normal;font-weight:normal;font-stretch:normal;font-size:12.80000019px;line-height:0%;font-family:'Times New Roman';-inkscape-font-specification:'Times New Roman';text-align:center;letter-spacing:0px;word-spacing:0px;text-anchor:middle;fill:#000000;fill-opacity:1;stroke:none;stroke-width:1.06666672"
           x="131.16722"
           y="705.6629"
           id="text3926"><tspan
             sodipodi:role="line"
             id="tspan3928"
             x="131.16722"
             y="705.6629"
             style="font-size:34.13333511px;line-height:1.25;stroke-width:1.06666672">-90º</tspan></text>
        <text
           xml:space="preserve"
           style="font-style:normal;font-variant:normal;font-weight:normal;font-stretch:normal;font-size:12.80000019px;line-height:0%;font-family:'Times New Roman';-inkscape-font-specification:'Times New Roman';text-align:center;letter-spacing:0px;word-spacing:0px;text-anchor:middle;fill:#000000;fill-opacity:1;stroke:none;stroke-width:1.06666672"
           x="131.16722"
           y="596.31555"
           id="text3930"><tspan
             sodipodi:role="line"
             id="tspan3932"
             x="131.16722"
             y="596.31555"
             style="font-size:34.13333511px;line-height:1.25;stroke-width:1.06666672">-45º</tspan></text>
        <text
           xml:space="preserve"
           style="font-style:normal;font-variant:normal;font-weight:normal;font-stretch:normal;font-size:12.80000019px;line-height:0%;font-family:'Times New Roman';-inkscape-font-specification:'Times New Roman';text-align:center;letter-spacing:0px;word-spacing:0px;text-anchor:middle;fill:#000000;fill-opacity:1;stroke:none;stroke-width:1.06666672"
           x="145.40056"
           y="486.96829"
           id="text3934"><tspan
             sodipodi:role="line"
             id="tspan3936"
             x="145.40056"
             y="486.96829"
             style="font-size:34.13333511px;line-height:1.25;stroke-width:1.06666672">0º</tspan></text>
        <text
           xml:space="preserve"
           style="font-style:normal;font-variant:normal;font-weight:normal;font-stretch:normal;font-size:12.80000019px;line-height:0%;font-family:'Times New Roman';-inkscape-font-specification:'Times New Roman';text-align:center;letter-spacing:0px;word-spacing:0px;text-anchor:middle;fill:#000000;fill-opacity:1;stroke:none;stroke-width:1.06666672"
           x="122.63389"
           y="815.01019"
           id="text3938"><tspan
             sodipodi:role="line"
             id="tspan3940"
             x="122.63389"
             y="815.01019"
             style="font-size:34.13333511px;line-height:1.25;stroke-width:1.06666672">-135º</tspan></text>
        <text
           xml:space="preserve"
           style="font-style:normal;font-variant:normal;font-weight:normal;font-stretch:normal;font-size:12.80000019px;line-height:0%;font-family:'Times New Roman';-inkscape-font-specification:'Times New Roman';text-align:center;letter-spacing:0px;word-spacing:0px;text-anchor:middle;fill:#000000;fill-opacity:1;stroke:none;stroke-width:1.06666672"
           x="122.63389"
           y="924.35754"
           id="text3942"><tspan
             sodipodi:role="line"
             id="tspan3944"
             x="122.63389"
             y="924.35754"
             style="font-size:34.13333511px;line-height:1.25;stroke-width:1.06666672">-180º</tspan></text>
        <text
           xml:space="preserve"
           style="font-style:normal;font-variant:normal;font-weight:normal;font-stretch:normal;font-size:12.80000019px;line-height:0%;font-family:'Times New Roman';-inkscape-font-specification:'Times New Roman';text-align:center;letter-spacing:0px;word-spacing:0px;text-anchor:middle;fill:#000000;fill-opacity:1;stroke:none;stroke-width:1.06666672"
           x="157.76732"
           y="443.24481"
           id="text3956"><tspan
             sodipodi:role="line"
             id="tspan3958"
             x="157.76732"
             y="443.24481"
             style="font-size:34.13333511px;line-height:1.25;stroke-width:1.06666672">Fase [Grados]</tspan></text>
        <text
           xml:space="preserve"
           style="font-style:normal;font-variant:normal;font-weight:normal;font-stretch:normal;font-size:12.80000019px;line-height:0%;font-family:'Times New Roman';-inkscape-font-specification:'Times New Roman';text-align:center;letter-spacing:0px;word-spacing:0px;text-anchor:middle;fill:#000000;fill-opacity:1;stroke:none;stroke-width:1.06666672"
           x="877.68268"
           y="1002.7111"
           id="text3960"><tspan
             sodipodi:role="line"
             id="tspan3962"
             x="877.68268"
             y="1002.7111"
             style="font-size:34.13333511px;line-height:1.25;stroke-width:1.06666672">Frecuencia [Rad/s]</tspan></text>
        <text
           xml:space="preserve"
           style="font-style:normal;font-variant:normal;font-weight:normal;font-stretch:normal;font-size:12.80000019px;line-height:0%;font-family:'Times New Roman';-inkscape-font-specification:'Times New Roman';text-align:center;letter-spacing:0px;word-spacing:0px;text-anchor:middle;fill:#000000;fill-opacity:1;stroke:none;stroke-width:1.06666672"
           x="362.10001"
           y="957.20428"
           id="text3964"><tspan
             sodipodi:role="line"
             id="tspan3966"
             x="362.10001"
             y="957.20428"
             style="font-size:34.13333511px;line-height:1.25;stroke-width:1.06666672">1</tspan></text>
        <text
           xml:space="preserve"
           style="font-style:normal;font-variant:normal;font-weight:normal;font-stretch:normal;font-size:12.80000019px;line-height:0%;font-family:'Times New Roman';-inkscape-font-specification:'Times New Roman';text-align:center;letter-spacing:0px;word-spacing:0px;text-anchor:middle;fill:#000000;fill-opacity:1;stroke:none;stroke-width:1.06666672"
           x="558.27856"
           y="957.00427"
           id="text3968"><tspan
             sodipodi:role="line"
             id="tspan3970"
             x="558.27856"
             y="957.00427"
             style="font-size:34.13333511px;line-height:1.25;stroke-width:1.06666672">10</tspan></text>
        <text
           xml:space="preserve"
           style="font-style:normal;font-variant:normal;font-weight:normal;font-stretch:normal;font-size:12.80000019px;line-height:0%;font-family:'Times New Roman';-inkscape-font-specification:'Times New Roman';text-align:center;letter-spacing:0px;word-spacing:0px;text-anchor:middle;fill:#000000;fill-opacity:1;stroke:none;stroke-width:1.06666672"
           x="755.93207"
           y="957.00427"
           id="text3972"><tspan
             sodipodi:role="line"
             id="tspan3974"
             x="755.93207"
             y="957.00427"
             style="font-size:34.13333511px;line-height:1.25;stroke-width:1.06666672">100</tspan></text>
        <text
           xml:space="preserve"
           style="font-style:normal;font-variant:normal;font-weight:normal;font-stretch:normal;font-size:12.80000019px;line-height:0%;font-family:'Times New Roman';-inkscape-font-specification:'Times New Roman';text-align:center;letter-spacing:0px;word-spacing:0px;text-anchor:middle;fill:#000000;fill-opacity:1;stroke:none;stroke-width:1.06666672"
           x="165.82979"
           y="956.97095"
           id="text3976"><tspan
             sodipodi:role="line"
             id="tspan3978"
             x="165.82979"
             y="956.97095"
             style="font-size:34.13333511px;line-height:1.25;stroke-width:1.06666672">0.1</tspan></text>
        <text
           xml:space="preserve"
           style="font-style:normal;font-variant:normal;font-weight:normal;font-stretch:normal;font-size:12.80000019px;line-height:0%;font-family:'Times New Roman';-inkscape-font-specification:'Times New Roman';text-align:center;letter-spacing:0px;word-spacing:0px;text-anchor:middle;fill:#000000;fill-opacity:1;stroke:none;stroke-width:1.06666672"
           x="952.87726"
           y="957.52094"
           id="text3980"><tspan
             sodipodi:role="line"
             id="tspan3982"
             x="952.87726"
             y="957.52094"
             style="font-size:34.13333511px;line-height:1.25;stroke-width:1.06666672">1k</tspan></text>
        <path
           style="fill:none;stroke:#000000;stroke-width:1.51181102;stroke-linecap:butt;stroke-linejoin:miter;stroke-miterlimit:4;stroke-dasharray:9.07086614, 1.51181102;stroke-dashoffset:0;stroke-opacity:1"
           d="M 164.36311,584.98227 H 954.97732"
           id="path2985-57"
           inkscape:connector-curvature="0" />
        <path
           style="opacity:0.25954201;fill:none;stroke:#000000;stroke-width:5.66929102;stroke-linecap:butt;stroke-linejoin:miter;stroke-miterlimit:4;stroke-dasharray:none;stroke-opacity:1"
           d="m 164.52347,475.85639 295.90835,163.23092 99.117,110.43656 178.91484,99.04573 56.50757,62.68185"
           id="path4900"
           inkscape:connector-curvature="0"
           sodipodi:nodetypes="ccccc" />
        <path
           style="fill:none;stroke:#000000;stroke-width:0.37795275;stroke-linecap:butt;stroke-linejoin:miter;stroke-miterlimit:4;stroke-dasharray:2.26771653, 0.37795276;stroke-dashoffset:0;stroke-opacity:1"
           d="M 461.36158,913.36148 V 475.29773"
           id="path2985-2-3-8"
           inkscape:connector-curvature="0" />
        <path
           style="fill:none;stroke:#000000;stroke-width:0.37795275;stroke-linecap:butt;stroke-linejoin:miter;stroke-miterlimit:4;stroke-dasharray:2.26771653, 0.37795276;stroke-dashoffset:0;stroke-opacity:1"
           d="M 738.43007,913.36148 V 475.29773"
           id="path2985-2-3-8-7"
           inkscape:connector-curvature="0" />
        <text
           xml:space="preserve"
           style="font-style:normal;font-variant:normal;font-weight:normal;font-stretch:normal;font-size:12.80000019px;line-height:0%;font-family:'Times New Roman';-inkscape-font-specification:'Times New Roman';text-align:center;letter-spacing:0px;word-spacing:0px;text-anchor:middle;fill:#000000;fill-opacity:1;stroke:none;stroke-width:1.06666672"
           x="236.94826"
           y="498.3063"
           id="text5086"><tspan
             sodipodi:role="line"
             id="tspan5088"
             x="236.94826"
             y="498.3063"
             style="font-size:21.33333397px;line-height:1.25;stroke-width:1.06666672">-20</tspan></text>
        <text
           xml:space="preserve"
           style="font-style:normal;font-variant:normal;font-weight:normal;font-stretch:normal;font-size:12.80000019px;line-height:0%;font-family:'Times New Roman';-inkscape-font-specification:'Times New Roman';text-align:center;letter-spacing:0px;word-spacing:0px;text-anchor:middle;fill:#000000;fill-opacity:1;stroke:none;stroke-width:1.06666672"
           x="927.72089"
           y="897.92889"
           id="text5086-2"><tspan
             sodipodi:role="line"
             id="tspan5088-6"
             x="927.72089"
             y="897.92889"
             style="font-size:21.33333397px;line-height:1.25;stroke-width:1.06666672">-40</tspan></text>
        <text
           xml:space="preserve"
           style="font-style:normal;font-variant:normal;font-weight:normal;font-stretch:normal;font-size:12.80000019px;line-height:0%;font-family:'Times New Roman';-inkscape-font-specification:'Times New Roman';text-align:center;letter-spacing:0px;word-spacing:0px;text-anchor:middle;fill:#000000;fill-opacity:1;stroke:none;stroke-width:1.06666672"
           x="475.07281"
           y="627.36511"
           id="text5086-0"><tspan
             sodipodi:role="line"
             id="tspan5088-3"
             x="475.07281"
             y="627.36511"
             style="font-size:21.33333397px;line-height:1.25;stroke-width:1.06666672">-30</tspan></text>
        <text
           xml:space="preserve"
           style="font-style:normal;font-variant:normal;font-weight:normal;font-stretch:normal;font-size:12.80000019px;line-height:0%;font-family:'Times New Roman';-inkscape-font-specification:'Times New Roman';text-align:center;letter-spacing:0px;word-spacing:0px;text-anchor:middle;fill:#000000;fill-opacity:1;stroke:none;stroke-width:1.06666672"
           x="577.3186"
           y="743.7962"
           id="text5086-7"><tspan
             sodipodi:role="line"
             id="tspan5088-7"
             x="577.3186"
             y="743.7962"
             style="font-size:21.33333397px;line-height:1.25;stroke-width:1.06666672">-30</tspan></text>
        <text
           xml:space="preserve"
           style="font-style:normal;font-variant:normal;font-weight:normal;font-stretch:normal;font-size:12.80000019px;line-height:0%;font-family:'Times New Roman';-inkscape-font-specification:'Times New Roman';text-align:center;letter-spacing:0px;word-spacing:0px;text-anchor:middle;fill:#000000;fill-opacity:1;stroke:none;stroke-width:1.06666672"
           x="721.91675"
           y="872.42487"
           id="text5086-7-3"><tspan
             sodipodi:role="line"
             id="tspan5088-7-8"
             x="721.91675"
             y="872.42487"
             style="font-size:21.33333397px;line-height:1.25;stroke-width:1.06666672">-30</tspan></text>
        <text
           xml:space="preserve"
           style="font-style:normal;font-variant:normal;font-weight:normal;font-stretch:normal;font-size:12.80000019px;line-height:0%;font-family:'Times New Roman';-inkscape-font-specification:'Times New Roman';text-align:center;letter-spacing:0px;word-spacing:0px;text-anchor:middle;fill:#000000;fill-opacity:1;stroke:none;stroke-width:1.06666672"
           x="522.98413"
           y="673.93756"
           id="text5086-2-7"><tspan
             sodipodi:role="line"
             id="tspan5088-6-5"
             x="522.98413"
             y="673.93756"
             style="font-size:21.33333397px;line-height:1.25;stroke-width:1.06666672">-40</tspan></text>
        <text
           xml:space="preserve"
           style="font-style:normal;font-variant:normal;font-weight:normal;font-stretch:normal;font-size:12.80000019px;line-height:0%;font-family:'Times New Roman';-inkscape-font-specification:'Times New Roman';text-align:center;letter-spacing:0px;word-spacing:0px;text-anchor:middle;fill:#000000;fill-opacity:1;stroke:none;stroke-width:1.06666672"
           x="651.61273"
           y="777.06232"
           id="text5086-5"><tspan
             sodipodi:role="line"
             id="tspan5088-9"
             x="651.61273"
             y="777.06232"
             style="font-size:21.33333397px;line-height:1.25;stroke-width:1.06666672">-20</tspan></text>
        <g
           id="g5224"
           transform="translate(343.74905,408.06338)">
          <path
             inkscape:connector-curvature="0"
             id="path5204"
             d="m 387.75429,389.63728 12.19755,12.19754"
             style="fill:none;stroke:#ff0000;stroke-width:2.1996851;stroke-linecap:butt;stroke-linejoin:miter;stroke-miterlimit:4;stroke-dasharray:none;stroke-opacity:1" />
          <path
             inkscape:connector-curvature="0"
             id="path5204-4"
             d="m 399.95184,389.63728 -12.19755,12.19755"
             style="fill:none;stroke:#ff0000;stroke-width:2.1996851;stroke-linecap:butt;stroke-linejoin:miter;stroke-miterlimit:4;stroke-dasharray:none;stroke-opacity:1" />
        </g>
        <g
           transform="translate(-221.21915,298.83989)"
           id="g5224-8">
          <path
             inkscape:connector-curvature="0"
             id="path5204-1"
             d="m 387.75429,389.63728 12.19755,12.19754"
             style="fill:none;stroke:#ff0000;stroke-width:2.1996851;stroke-linecap:butt;stroke-linejoin:miter;stroke-miterlimit:4;stroke-dasharray:none;stroke-opacity:1" />
          <path
             inkscape:connector-curvature="0"
             id="path5204-4-5"
             d="m 399.95184,389.63728 -12.19755,12.19755"
             style="fill:none;stroke:#ff0000;stroke-width:2.1996851;stroke-linecap:butt;stroke-linejoin:miter;stroke-miterlimit:4;stroke-dasharray:none;stroke-opacity:1" />
        </g>
        <g
           transform="translate(546.11744,517.28687)"
           id="g5224-87">
          <path
             inkscape:connector-curvature="0"
             id="path5204-8"
             d="m 387.75429,389.63728 12.19755,12.19754"
             style="fill:none;stroke:#ff0000;stroke-width:2.1996851;stroke-linecap:butt;stroke-linejoin:miter;stroke-miterlimit:4;stroke-dasharray:none;stroke-opacity:1" />
          <path
             inkscape:connector-curvature="0"
             id="path5204-4-6"
             d="m 399.95184,389.63728 -12.19755,12.19755"
             style="fill:none;stroke:#ff0000;stroke-width:2.1996851;stroke-linecap:butt;stroke-linejoin:miter;stroke-miterlimit:4;stroke-dasharray:none;stroke-opacity:1" />
        </g>
        <g
           transform="translate(68.195373,407.50895)"
           id="g5224-83">
          <path
             inkscape:connector-curvature="0"
             id="path5204-83"
             d="m 387.75429,389.63728 12.19755,12.19754"
             style="fill:none;stroke:#ff0000;stroke-width:2.1996851;stroke-linecap:butt;stroke-linejoin:miter;stroke-miterlimit:4;stroke-dasharray:none;stroke-opacity:1" />
          <path
             inkscape:connector-curvature="0"
             id="path5204-4-57"
             d="m 399.95184,389.63728 -12.19755,12.19755"
             style="fill:none;stroke:#ff0000;stroke-width:2.1996851;stroke-linecap:butt;stroke-linejoin:miter;stroke-miterlimit:4;stroke-dasharray:none;stroke-opacity:1" />
        </g>
        <g
           transform="translate(165.77574,407.50895)"
           id="g5224-4">
          <path
             inkscape:connector-curvature="0"
             id="path5204-9"
             d="m 387.75429,389.63728 12.19755,12.19754"
             style="fill:none;stroke:#ff0000;stroke-width:2.1996851;stroke-linecap:butt;stroke-linejoin:miter;stroke-miterlimit:4;stroke-dasharray:none;stroke-opacity:1" />
          <path
             inkscape:connector-curvature="0"
             id="path5204-4-1"
             d="m 399.95184,389.63728 -12.19755,12.19755"
             style="fill:none;stroke:#ff0000;stroke-width:2.1996851;stroke-linecap:butt;stroke-linejoin:miter;stroke-miterlimit:4;stroke-dasharray:none;stroke-opacity:1" />
        </g>
      </g>
      <path
         sodipodi:nodetypes="cssssssssc"
         inkscape:connector-curvature="0"
         id="path3154"
         d="m 164.87184,694.57595 c 0,0 124.98544,6.69978 181.85434,29.93943 42.24201,17.26233 72.17353,56.44567 111.99565,78.72962 15.4591,8.65071 31.07794,20.76166 48.79019,21.06849 18.25528,0.31625 34.5462,-12.06239 51.00793,-19.95962 33.44057,-16.04255 59.40436,-56.73272 96.47151,-55.4434 32.47773,1.12969 55.61,33.98512 80.94735,54.33453 26.29441,21.11806 45.59881,50.45879 73.18528,69.85868 17.5777,12.36134 37.03866,22.78966 57.66113,28.83056 26.75471,7.83721 83.16509,8.87094 83.16509,8.87094"
         style="fill:none;stroke:#ff0000;stroke-width:5.66929102;stroke-linecap:butt;stroke-linejoin:miter;stroke-miterlimit:4;stroke-dasharray:none;stroke-opacity:1" />
    </g>
  </g>
</svg>
