<?xml version="1.0" encoding="UTF-8" standalone="no"?>
<!-- Created with Inkscape (http://www.inkscape.org/) -->

<svg
   xmlns:dc="http://purl.org/dc/elements/1.1/"
   xmlns:cc="http://creativecommons.org/ns#"
   xmlns:rdf="http://www.w3.org/1999/02/22-rdf-syntax-ns#"
   xmlns:svg="http://www.w3.org/2000/svg"
   xmlns="http://www.w3.org/2000/svg"
   xmlns:sodipodi="http://sodipodi.sourceforge.net/DTD/sodipodi-0.dtd"
   xmlns:inkscape="http://www.inkscape.org/namespaces/inkscape"
   width="513.84906"
   height="316.19736"
   id="svg2"
   version="1.1"
   inkscape:version="0.92.3 (2405546, 2018-03-11)"
   sodipodi:docname="bode10.svg">
  <defs
     id="defs4">
    <marker
       inkscape:stockid="Arrow1Mstart"
       orient="auto"
       refY="0"
       refX="0"
       id="Arrow1Mstart"
       style="overflow:visible">
      <path
         id="path4473"
         d="M 4.2666667,0 6.4,-2.1333333 -1.0666667,0 6.4,2.1333333 Z"
         style="fill-rule:evenodd;stroke:#000000;stroke-width:0.42666668pt"
         inkscape:connector-curvature="0" />
    </marker>
    <marker
       inkscape:stockid="Arrow1Mend"
       orient="auto"
       refY="0"
       refX="0"
       id="Arrow1Mend"
       style="overflow:visible">
      <path
         id="path3770"
         d="M -4.2666667,0 -6.4,2.1333333 1.0666667,0 -6.4,-2.1333333 Z"
         style="fill-rule:evenodd;stroke:#000000;stroke-width:0.42666668pt"
         inkscape:connector-curvature="0" />
    </marker>
    <marker
       inkscape:stockid="Arrow1Mend"
       orient="auto"
       refY="0"
       refX="0"
       id="Arrow1Mend-9"
       style="overflow:visible">
      <path
         inkscape:connector-curvature="0"
         id="path3770-8"
         d="M -4.2666667,0 -6.4,2.1333333 1.0666667,0 -6.4,-2.1333333 Z"
         style="fill-rule:evenodd;stroke:#000000;stroke-width:0.42666668pt" />
    </marker>
  </defs>
  <sodipodi:namedview
     id="base"
     pagecolor="#ffffff"
     bordercolor="#666666"
     borderopacity="1.0"
     inkscape:pageopacity="0.0"
     inkscape:pageshadow="2"
     inkscape:zoom="1.5451324"
     inkscape:cx="265.25307"
     inkscape:cy="130.46765"
     inkscape:document-units="px"
     inkscape:current-layer="layer1"
     showgrid="false"
     inkscape:window-width="1373"
     inkscape:window-height="970"
     inkscape:window-x="59"
     inkscape:window-y="40"
     inkscape:window-maximized="0"
     fit-margin-top="0"
     fit-margin-left="0"
     fit-margin-right="0"
     fit-margin-bottom="0" />
  <metadata
     id="metadata7">
    <rdf:RDF>
      <cc:Work
         rdf:about="">
        <dc:format>image/svg+xml</dc:format>
        <dc:type
           rdf:resource="http://purl.org/dc/dcmitype/StillImage" />
        <dc:title />
      </cc:Work>
    </rdf:RDF>
  </metadata>
  <g
     inkscape:label="Capa 1"
     inkscape:groupmode="layer"
     id="layer1"
     transform="translate(-219.26667,-463.36931)">
    <g
       id="g3834" />
    <g
       id="g980">
      <path
         inkscape:connector-curvature="0"
         id="path2987"
         d="m 219.26948,653.72531 h 506.61789 v 0"
         style="fill:none;stroke:#000000;stroke-width:3.77952743;stroke-linecap:butt;stroke-linejoin:miter;stroke-miterlimit:4;stroke-dasharray:none;stroke-opacity:1;marker-end:url(#Arrow1Mend)" />
      <path
         inkscape:connector-curvature="0"
         id="path4225"
         d="M 344.87961,779.56621 V 470.59765"
         style="fill:none;stroke:#000000;stroke-width:3.77952743;stroke-linecap:butt;stroke-linejoin:miter;stroke-miterlimit:4;stroke-dasharray:none;stroke-opacity:1;marker-end:url(#Arrow1Mend-9)" />
      <text
         id="text3042"
         y="703.51312"
         x="705.45044"
         style="font-style:normal;font-variant:normal;font-weight:normal;font-stretch:normal;font-size:12.80000019px;line-height:0%;font-family:Mathematica1;-inkscape-font-specification:Mathematica1;text-align:center;letter-spacing:0px;word-spacing:0px;text-anchor:middle;fill:#000000;fill-opacity:1;stroke:none;stroke-width:1.06666672"
         xml:space="preserve"><tspan
           y="703.51312"
           x="705.45044"
           id="tspan3044"
           sodipodi:role="line"
           style="font-size:42.66666794px;line-height:1.25;stroke-width:1.06666672;-inkscape-font-specification:Alfa-beta;font-family:Alfa-beta;font-weight:normal;font-style:normal;font-stretch:normal;font-variant:normal">w</tspan></text>
      <path
         sodipodi:nodetypes="ccc"
         inkscape:connector-curvature="0"
         id="path3116"
         d="m 272.96012,654.17803 271.9219,0.46065 131.09673,-112.45052"
         style="fill:none;stroke:#ff0000;stroke-width:3.26173234;stroke-linecap:butt;stroke-linejoin:miter;stroke-miterlimit:4;stroke-dasharray:9.78519685, 9.78519685;stroke-dashoffset:0;stroke-opacity:1" />
      <text
         id="text3016"
         y="685.16705"
         x="488.04675"
         style="font-style:normal;font-variant:normal;font-weight:normal;font-stretch:normal;font-size:12.80000019px;line-height:0%;font-family:'Times New Roman';-inkscape-font-specification:'Times New Roman';text-align:center;letter-spacing:0px;word-spacing:0px;text-anchor:middle;fill:#000000;fill-opacity:1;stroke:none;stroke-width:1.06666672"
         xml:space="preserve"><tspan
           style="font-size:34.13333511px;line-height:1.25;stroke-width:1.06666672"
           y="685.16705"
           x="488.04675"
           id="tspan3018"
           sodipodi:role="line">1</tspan></text>
      <text
         id="text3020"
         y="684.96704"
         x="604.84662"
         style="font-style:normal;font-variant:normal;font-weight:normal;font-stretch:normal;font-size:12.80000019px;line-height:0%;font-family:'Times New Roman';-inkscape-font-specification:'Times New Roman';text-align:center;letter-spacing:0px;word-spacing:0px;text-anchor:middle;fill:#000000;fill-opacity:1;stroke:none;stroke-width:1.06666672"
         xml:space="preserve"><tspan
           style="font-size:34.13333511px;line-height:1.25;stroke-width:1.06666672"
           y="684.96704"
           x="604.84662"
           id="tspan3022"
           sodipodi:role="line">10</tspan></text>
      <text
         id="text3024"
         y="567.89038"
         x="315.64963"
         style="font-style:normal;font-variant:normal;font-weight:normal;font-stretch:normal;font-size:12.80000019px;line-height:0%;font-family:'Times New Roman';-inkscape-font-specification:'Times New Roman';text-align:center;letter-spacing:0px;word-spacing:0px;text-anchor:middle;fill:#000000;fill-opacity:1;stroke:none;stroke-width:1.06666672"
         xml:space="preserve"><tspan
           y="567.89038"
           x="315.64963"
           id="tspan3026"
           sodipodi:role="line"
           style="font-size:34.13333511px;line-height:1.25;stroke-width:1.06666672">20</tspan></text>
      <path
         inkscape:connector-curvature="0"
         id="path3832"
         d="m 487.7149,643.3622 v 17.01015"
         style="fill:none;stroke:#000000;stroke-width:3.38385081;stroke-linecap:butt;stroke-linejoin:miter;stroke-miterlimit:4;stroke-dasharray:none;stroke-opacity:1" />
      <path
         inkscape:connector-curvature="0"
         id="path3832-4"
         d="m 603.4557,643.3622 v 17.01015"
         style="fill:none;stroke:#000000;stroke-width:3.38385081;stroke-linecap:butt;stroke-linejoin:miter;stroke-miterlimit:4;stroke-dasharray:none;stroke-opacity:1" />
      <text
         xml:space="preserve"
         style="font-style:normal;font-variant:normal;font-weight:normal;font-stretch:normal;font-size:12.80000019px;line-height:0%;font-family:'Times New Roman';-inkscape-font-specification:'Times New Roman';text-align:center;letter-spacing:0px;word-spacing:0px;text-anchor:middle;fill:#000000;fill-opacity:1;stroke:none;stroke-width:1.06666672"
         x="636.76312"
         y="773.17847"
         id="text3044"><tspan
           sodipodi:role="line"
           id="tspan3046"
           x="636.76312"
           y="773.17847"
           style="font-style:italic;font-size:34.13333511px;line-height:1.25;-inkscape-font-specification:'Times New Roman, Italic';stroke-width:1.06666672">T</tspan></text>
      <path
         style="fill:none;stroke:#000000;stroke-width:1.60000002;stroke-linecap:butt;stroke-linejoin:miter;stroke-miterlimit:4;stroke-dasharray:none;stroke-opacity:1"
         d="m 624.31745,746.02418 h 30.54852"
         id="path3048"
         inkscape:connector-curvature="0" />
      <text
         xml:space="preserve"
         style="font-style:normal;font-variant:normal;font-weight:normal;font-stretch:normal;font-size:12.80000019px;line-height:0%;font-family:'Times New Roman';-inkscape-font-specification:'Times New Roman';text-align:center;letter-spacing:0px;word-spacing:0px;text-anchor:middle;fill:#000000;fill-opacity:1;stroke:none;stroke-width:1.06666672"
         x="640.15741"
         y="741.49854"
         id="text3830"><tspan
           style="font-size:34.13333511px;line-height:1.25;stroke-width:1.06666672"
           sodipodi:role="line"
           id="tspan3832"
           x="640.15741"
           y="741.49854">1</tspan></text>
      <text
         id="text3841"
         y="756.77277"
         x="606.21466"
         style="font-style:normal;font-variant:normal;font-weight:normal;font-stretch:normal;font-size:12.80000019px;line-height:0%;font-family:'Times New Roman';-inkscape-font-specification:'Times New Roman';text-align:center;letter-spacing:0px;word-spacing:0px;text-anchor:middle;fill:#000000;fill-opacity:1;stroke:none;stroke-width:1.06666672"
         xml:space="preserve"><tspan
           style="font-size:34.13333511px;line-height:1.25;stroke-width:1.06666672"
           y="756.77277"
           x="606.21466"
           id="tspan3843"
           sodipodi:role="line">=</tspan></text>
      <text
         id="text3845"
         y="759.03564"
         x="583.02045"
         style="font-style:normal;font-variant:normal;font-weight:normal;font-stretch:normal;font-size:12.80000019px;line-height:0%;font-family:'Times New Roman';-inkscape-font-specification:'Times New Roman';text-align:center;letter-spacing:0px;word-spacing:0px;text-anchor:middle;fill:#000000;fill-opacity:1;stroke:none;stroke-width:1.06666672"
         xml:space="preserve"><tspan
           style="font-size:18.66666667px;line-height:1.25;baseline-shift:sub;stroke-width:1.06666672;-inkscape-font-specification:sans-serif;font-family:sans-serif;font-weight:normal;font-style:normal;font-stretch:normal;font-variant:normal"
           y="759.03564"
           x="583.02045"
           id="tspan3847"
           sodipodi:role="line">0</tspan></text>
      <path
         sodipodi:nodetypes="csc"
         inkscape:connector-curvature="0"
         id="path3885"
         d="m 545.2471,660.64126 c 0,0 -6.55458,25.90706 -5.30472,38.95075 1.19913,12.51429 12.09329,35.72341 12.09329,35.72341"
         style="fill:none;stroke:#000000;stroke-width:1.38666666;stroke-linecap:butt;stroke-linejoin:miter;stroke-miterlimit:4;stroke-dasharray:none;stroke-opacity:1;marker-end:url(#Arrow1Mend-9)" />
      <text
         id="text4071"
         y="495.61188"
         x="388.98068"
         style="font-style:normal;font-variant:normal;font-weight:normal;font-stretch:normal;font-size:12.80000019px;line-height:0%;font-family:'Times New Roman';-inkscape-font-specification:'Times New Roman';text-align:center;letter-spacing:0px;word-spacing:0px;text-anchor:middle;fill:#000000;fill-opacity:1;stroke:none;stroke-width:1.06666672"
         xml:space="preserve"><tspan
           y="495.61188"
           x="388.98068"
           id="tspan4073"
           sodipodi:role="line"
           style="font-size:34.13333511px;line-height:1.25;stroke-width:1.06666672">0º</tspan></text>
      <text
         id="text4075"
         y="495.61188"
         x="550.77472"
         style="font-style:normal;font-variant:normal;font-weight:normal;font-stretch:normal;font-size:12.80000019px;line-height:0%;font-family:'Times New Roman';-inkscape-font-specification:'Times New Roman';text-align:center;letter-spacing:0px;word-spacing:0px;text-anchor:middle;fill:#000000;fill-opacity:1;stroke:none;stroke-width:1.06666672"
         xml:space="preserve"><tspan
           y="495.61188"
           x="550.77472"
           id="tspan4077"
           sodipodi:role="line"
           style="font-size:34.13333511px;line-height:1.25;stroke-width:1.06666672">45º</tspan></text>
      <text
         id="text4079"
         y="495.57855"
         x="701.25452"
         style="font-style:normal;font-variant:normal;font-weight:normal;font-stretch:normal;font-size:12.80000019px;line-height:0%;font-family:'Times New Roman';-inkscape-font-specification:'Times New Roman';text-align:center;letter-spacing:0px;word-spacing:0px;text-anchor:middle;fill:#000000;fill-opacity:1;stroke:none;stroke-width:1.06666672"
         xml:space="preserve"><tspan
           y="495.57855"
           x="701.25452"
           id="tspan4081"
           sodipodi:role="line"
           style="font-size:34.13333511px;line-height:1.25;stroke-width:1.06666672">90</tspan></text>
      <path
         inkscape:connector-curvature="0"
         id="path3028"
         d="m 658.93881,556.95613 v 98.52602"
         style="fill:none;stroke:#000000;stroke-width:2.1996851;stroke-linecap:butt;stroke-linejoin:miter;stroke-miterlimit:4;stroke-dasharray:2.19968503, 4.39937008;stroke-dashoffset:0;stroke-opacity:1" />
      <path
         inkscape:connector-curvature="0"
         id="path3028-4"
         d="M 658.01798,557.64674 H 336.91323"
         style="fill:none;stroke:#000000;stroke-width:2.1996851;stroke-linecap:butt;stroke-linejoin:miter;stroke-miterlimit:4;stroke-dasharray:2.19968503, 4.39937008;stroke-dashoffset:0;stroke-opacity:1" />
      <path
         inkscape:connector-curvature="0"
         id="path4093"
         d="M 547.17817,591.012 H 658.3229"
         style="fill:none;stroke:#000000;stroke-width:1.06666672px;stroke-linecap:butt;stroke-linejoin:miter;stroke-opacity:1;marker-start:url(#Arrow1Mstart);marker-mid:none;marker-end:url(#Arrow1Mend-9)" />
      <path
         inkscape:connector-curvature="0"
         id="path3028-3"
         d="m 545.79748,556.95613 v 98.52602"
         style="fill:none;stroke:#000000;stroke-width:2.1996851;stroke-linecap:butt;stroke-linejoin:miter;stroke-miterlimit:4;stroke-dasharray:2.19968503, 4.39937008;stroke-dashoffset:0;stroke-opacity:1" />
      <text
         id="text4929"
         y="588.4342"
         x="595.75122"
         style="font-style:normal;font-variant:normal;font-weight:normal;font-stretch:normal;font-size:12.80000019px;line-height:0%;font-family:'Times New Roman';-inkscape-font-specification:'Times New Roman';text-align:center;letter-spacing:0px;word-spacing:0px;text-anchor:middle;fill:#000000;fill-opacity:1;stroke:none;stroke-width:1.06666672"
         xml:space="preserve"><tspan
           style="font-size:21.33333397px;line-height:1.25;stroke-width:1.06666672"
           y="588.4342"
           x="595.75122"
           id="tspan4931"
           sodipodi:role="line">1 Dec.</tspan></text>
      <text
         id="text3042-5"
         y="757.21722"
         x="567.23346"
         style="font-style:normal;font-variant:normal;font-weight:normal;font-stretch:normal;font-size:12.80000019px;line-height:0%;font-family:Mathematica1;-inkscape-font-specification:Mathematica1;text-align:center;letter-spacing:0px;word-spacing:0px;text-anchor:middle;fill:#000000;fill-opacity:1;stroke:none;stroke-width:1.06666672"
         xml:space="preserve"><tspan
           y="757.21722"
           x="567.23346"
           id="tspan3044-7"
           sodipodi:role="line"
           style="font-style:normal;font-variant:normal;font-weight:normal;font-stretch:normal;font-size:42.66666794px;line-height:1.25;font-family:Alfa-beta;-inkscape-font-specification:Alfa-beta;stroke-width:1.06666672">w</tspan></text>
    </g>
  </g>
</svg>
