<?xml version="1.0" encoding="UTF-8" standalone="no"?>
<!-- Created with Inkscape (http://www.inkscape.org/) -->

<svg
   width="239.0611mm"
   height="78.159119mm"
   viewBox="0 0 847.06685 276.94174"
   id="svg2"
   version="1.1"
   inkscape:version="1.1.2 (0a00cf5339, 2022-02-04)"
   sodipodi:docname="model_fig30.svg"
   xmlns:inkscape="http://www.inkscape.org/namespaces/inkscape"
   xmlns:sodipodi="http://sodipodi.sourceforge.net/DTD/sodipodi-0.dtd"
   xmlns="http://www.w3.org/2000/svg"
   xmlns:svg="http://www.w3.org/2000/svg"
   xmlns:rdf="http://www.w3.org/1999/02/22-rdf-syntax-ns#"
   xmlns:cc="http://creativecommons.org/ns#"
   xmlns:dc="http://purl.org/dc/elements/1.1/">
  <defs
     id="defs4">
    <marker
       inkscape:stockid="DotM"
       orient="auto"
       refY="0"
       refX="0"
       id="marker3152"
       style="overflow:visible"
       inkscape:isstock="true">
      <path
         id="path3150"
         d="m -2.5,-1 c 0,2.76 -2.24,5 -5,5 -2.76,0 -5,-2.24 -5,-5 0,-2.76 2.24,-5 5,-5 2.76,0 5,2.24 5,5 z"
         style="fill:#000000;fill-opacity:1;fill-rule:evenodd;stroke:#000000;stroke-width:1pt;stroke-opacity:1"
         transform="matrix(0.4,0,0,0.4,2.96,0.4)"
         inkscape:connector-curvature="0" />
    </marker>
    <marker
       inkscape:isstock="true"
       style="overflow:visible"
       id="marker2201"
       refX="0"
       refY="0"
       orient="auto"
       inkscape:stockid="DotM"
       inkscape:collect="always">
      <path
         inkscape:connector-curvature="0"
         transform="matrix(0.4,0,0,0.4,2.96,0.4)"
         style="fill:#000000;fill-opacity:1;fill-rule:evenodd;stroke:#000000;stroke-width:1pt;stroke-opacity:1"
         d="m -2.5,-1 c 0,2.76 -2.24,5 -5,5 -2.76,0 -5,-2.24 -5,-5 0,-2.76 2.24,-5 5,-5 2.76,0 5,2.24 5,5 z"
         id="path2199" />
    </marker>
    <marker
       inkscape:stockid="Arrow1Mend"
       orient="auto"
       refY="0"
       refX="0"
       id="marker6265"
       style="overflow:visible"
       inkscape:isstock="true">
      <path
         id="path4772"
         d="M 0,0 5,-5 -12.5,0 5,5 Z"
         style="fill:#000000;fill-opacity:1;fill-rule:evenodd;stroke:#000000;stroke-width:1pt;stroke-opacity:1"
         transform="matrix(-0.4,0,0,-0.4,-4,0)"
         inkscape:connector-curvature="0" />
    </marker>
    <marker
       inkscape:stockid="Arrow1Send"
       orient="auto"
       refY="0"
       refX="0"
       id="Arrow1Send"
       style="overflow:visible"
       inkscape:isstock="true">
      <path
         id="path4778"
         d="M 0,0 5,-5 -12.5,0 5,5 Z"
         style="fill:#000000;fill-opacity:1;fill-rule:evenodd;stroke:#000000;stroke-width:1pt;stroke-opacity:1"
         transform="matrix(-0.2,0,0,-0.2,-1.2,0)"
         inkscape:connector-curvature="0" />
    </marker>
    <marker
       inkscape:stockid="DotM"
       orient="auto"
       refY="0"
       refX="0"
       id="DotM"
       style="overflow:visible"
       inkscape:isstock="true"
       inkscape:collect="always">
      <path
         id="path4827"
         d="m -2.5,-1 c 0,2.76 -2.24,5 -5,5 -2.76,0 -5,-2.24 -5,-5 0,-2.76 2.24,-5 5,-5 2.76,0 5,2.24 5,5 z"
         style="fill:#000000;fill-opacity:1;fill-rule:evenodd;stroke:#000000;stroke-width:1pt;stroke-opacity:1"
         transform="matrix(0.4,0,0,0.4,2.96,0.4)"
         inkscape:connector-curvature="0" />
    </marker>
    <marker
       inkscape:isstock="true"
       style="overflow:visible"
       id="marker4683"
       refX="0"
       refY="0"
       orient="auto"
       inkscape:stockid="Arrow1Mend">
      <path
         inkscape:connector-curvature="0"
         transform="matrix(-0.4,0,0,-0.4,-4,0)"
         style="fill:#000000;fill-opacity:1;fill-rule:evenodd;stroke:#000000;stroke-width:1pt;stroke-opacity:1"
         d="M 0,0 5,-5 -12.5,0 5,5 Z"
         id="path4685" />
    </marker>
    <marker
       inkscape:stockid="Arrow1Mend"
       orient="auto"
       refY="0"
       refX="0"
       id="Arrow1Mend"
       style="overflow:visible"
       inkscape:isstock="true">
      <path
         id="path4285"
         d="M 0,0 5,-5 -12.5,0 5,5 Z"
         style="fill:#000000;fill-opacity:1;fill-rule:evenodd;stroke:#000000;stroke-width:1pt;stroke-opacity:1"
         transform="matrix(-0.4,0,0,-0.4,-4,0)"
         inkscape:connector-curvature="0" />
    </marker>
    <marker
       inkscape:stockid="Arrow1Mend"
       orient="auto"
       refY="0"
       refX="0"
       id="marker4692-1"
       style="overflow:visible"
       inkscape:isstock="true">
      <path
         id="path4694-8"
         d="M 0,0 5,-5 -12.5,0 5,5 Z"
         style="fill:#000000;fill-opacity:1;fill-rule:evenodd;stroke:#000000;stroke-width:1pt;stroke-opacity:1"
         transform="matrix(-0.4,0,0,-0.4,-4,0)"
         inkscape:connector-curvature="0" />
    </marker>
    <marker
       inkscape:stockid="DotM"
       orient="auto"
       refY="0"
       refX="0"
       id="DotM-3"
       style="overflow:visible"
       inkscape:isstock="true">
      <path
         inkscape:connector-curvature="0"
         id="path4827-6"
         d="m -2.5,-1 c 0,2.76 -2.24,5 -5,5 -2.76,0 -5,-2.24 -5,-5 0,-2.76 2.24,-5 5,-5 2.76,0 5,2.24 5,5 z"
         style="fill:#000000;fill-opacity:1;fill-rule:evenodd;stroke:#000000;stroke-width:1pt;stroke-opacity:1"
         transform="matrix(0.4,0,0,0.4,2.96,0.4)" />
    </marker>
    <marker
       inkscape:stockid="DotM"
       orient="auto"
       refY="0"
       refX="0"
       id="DotM-7"
       style="overflow:visible"
       inkscape:isstock="true">
      <path
         id="path4827-0"
         d="m -2.5,-1 c 0,2.76 -2.24,5 -5,5 -2.76,0 -5,-2.24 -5,-5 0,-2.76 2.24,-5 5,-5 2.76,0 5,2.24 5,5 z"
         style="fill:#000000;fill-opacity:1;fill-rule:evenodd;stroke:#000000;stroke-width:1pt;stroke-opacity:1"
         transform="matrix(0.4,0,0,0.4,2.96,0.4)"
         inkscape:connector-curvature="0" />
    </marker>
    <marker
       inkscape:stockid="DotM"
       orient="auto"
       refY="0"
       refX="0"
       id="DotM-37"
       style="overflow:visible"
       inkscape:isstock="true"
       inkscape:collect="always">
      <path
         id="path4827-5"
         d="m -2.5,-1 c 0,2.76 -2.24,5 -5,5 -2.76,0 -5,-2.24 -5,-5 0,-2.76 2.24,-5 5,-5 2.76,0 5,2.24 5,5 z"
         style="fill:#000000;fill-opacity:1;fill-rule:evenodd;stroke:#000000;stroke-width:1pt;stroke-opacity:1"
         transform="matrix(0.4,0,0,0.4,2.96,0.4)"
         inkscape:connector-curvature="0" />
    </marker>
    <inkscape:perspective
       id="perspective2490"
       inkscape:persp3d-origin="153.03177 : 91.22556 : 1"
       inkscape:vp_z="306.06352 : 133.59813 : 1"
       inkscape:vp_y="0 : 1000 : 0"
       inkscape:vp_x="0 : 133.59812 : 1"
       sodipodi:type="inkscape:persp3d" />
    <marker
       inkscape:stockid="StopL"
       orient="auto"
       refY="0"
       refX="0"
       id="marker2296"
       style="overflow:visible"
       inkscape:isstock="true">
      <path
         id="path2294"
         d="M 0,5.65 V -5.65"
         style="fill:none;fill-opacity:0.75;fill-rule:evenodd;stroke:#000000;stroke-width:1pt;stroke-opacity:1"
         transform="scale(0.8)"
         inkscape:connector-curvature="0" />
    </marker>
    <marker
       inkscape:stockid="Arrow1Mend"
       orient="auto"
       refY="0"
       refX="0"
       id="marker1793"
       style="overflow:visible"
       inkscape:isstock="true">
      <path
         id="path1791"
         d="M 0,0 5,-5 -12.5,0 5,5 Z"
         style="fill:#000000;fill-opacity:1;fill-rule:evenodd;stroke:#000000;stroke-width:1pt;stroke-opacity:1"
         transform="matrix(-0.4,0,0,-0.4,-4,0)"
         inkscape:connector-curvature="0" />
    </marker>
    <marker
       inkscape:collect="always"
       inkscape:isstock="true"
       style="overflow:visible"
       id="marker1373"
       refX="0"
       refY="0"
       orient="auto"
       inkscape:stockid="Arrow1Mend">
      <path
         inkscape:connector-curvature="0"
         transform="matrix(-0.4,0,0,-0.4,-4,0)"
         style="fill:#000000;fill-opacity:1;fill-rule:evenodd;stroke:#000000;stroke-width:1pt;stroke-opacity:1"
         d="M 0,0 5,-5 -12.5,0 5,5 Z"
         id="path1371" />
    </marker>
    <marker
       inkscape:isstock="true"
       style="overflow:visible"
       id="Arrow1Mstart"
       refX="0"
       refY="0"
       orient="auto"
       inkscape:stockid="Arrow1Mstart">
      <path
         inkscape:connector-curvature="0"
         transform="matrix(0.4,0,0,0.4,4,0)"
         style="fill:#000000;fill-opacity:1;fill-rule:evenodd;stroke:#000000;stroke-width:1pt;stroke-opacity:1"
         d="M 0,0 5,-5 -12.5,0 5,5 Z"
         id="path2255" />
    </marker>
    <marker
       inkscape:isstock="true"
       style="overflow:visible"
       id="StopM"
       refX="0"
       refY="0"
       orient="auto"
       inkscape:stockid="StopM">
      <path
         inkscape:connector-curvature="0"
         transform="scale(0.4)"
         style="fill:none;fill-opacity:0.75;fill-rule:evenodd;stroke:#000000;stroke-width:1pt;stroke-opacity:1"
         d="M 0,5.65 V -5.65"
         id="path2422" />
    </marker>
    <marker
       inkscape:isstock="true"
       style="overflow:visible"
       id="marker1839"
       refX="0"
       refY="0"
       orient="auto"
       inkscape:stockid="DotM">
      <path
         inkscape:connector-curvature="0"
         transform="matrix(0.4,0,0,0.4,2.96,0.4)"
         style="fill:#000000;fill-opacity:1;fill-rule:evenodd;stroke:#000000;stroke-width:1pt;stroke-opacity:1"
         d="m -2.5,-1 c 0,2.76 -2.24,5 -5,5 -2.76,0 -5,-2.24 -5,-5 0,-2.76 2.24,-5 5,-5 2.76,0 5,2.24 5,5 z"
         id="path1837" />
    </marker>
    <marker
       inkscape:isstock="true"
       style="overflow:visible"
       id="Arrow1Send-7"
       refX="0"
       refY="0"
       orient="auto"
       inkscape:stockid="Arrow1Send">
      <path
         inkscape:connector-curvature="0"
         transform="matrix(-0.2,0,0,-0.2,-1.2,0)"
         style="fill:#000000;fill-opacity:1;fill-rule:evenodd;stroke:#000000;stroke-width:1pt;stroke-opacity:1"
         d="M 0,0 5,-5 -12.5,0 5,5 Z"
         id="path4778-0" />
    </marker>
    <marker
       inkscape:isstock="true"
       style="overflow:visible"
       id="DotM-372"
       refX="0"
       refY="0"
       orient="auto"
       inkscape:stockid="DotM">
      <path
         inkscape:connector-curvature="0"
         transform="matrix(0.4,0,0,0.4,2.96,0.4)"
         style="fill:#000000;fill-opacity:1;fill-rule:evenodd;stroke:#000000;stroke-width:1pt;stroke-opacity:1"
         d="m -2.5,-1 c 0,2.76 -2.24,5 -5,5 -2.76,0 -5,-2.24 -5,-5 0,-2.76 2.24,-5 5,-5 2.76,0 5,2.24 5,5 z"
         id="path4827-3" />
    </marker>
    <marker
       inkscape:stockid="Arrow1Mend"
       orient="auto"
       refY="0"
       refX="0"
       id="marker4683-5"
       style="overflow:visible"
       inkscape:isstock="true">
      <path
         id="path4685-1"
         d="M 0,0 5,-5 -12.5,0 5,5 Z"
         style="fill:#000000;fill-opacity:1;fill-rule:evenodd;stroke:#000000;stroke-width:1pt;stroke-opacity:1"
         transform="matrix(-0.4,0,0,-0.4,-4,0)"
         inkscape:connector-curvature="0" />
    </marker>
    <marker
       inkscape:isstock="true"
       style="overflow:visible"
       id="Arrow1Mend-7"
       refX="0"
       refY="0"
       orient="auto"
       inkscape:stockid="Arrow1Mend">
      <path
         inkscape:connector-curvature="0"
         transform="matrix(-0.4,0,0,-0.4,-4,0)"
         style="fill:#000000;fill-opacity:1;fill-rule:evenodd;stroke:#000000;stroke-width:1pt;stroke-opacity:1"
         d="M 0,0 5,-5 -12.5,0 5,5 Z"
         id="path4285-8" />
    </marker>
    <marker
       inkscape:isstock="true"
       style="overflow:visible"
       id="marker4692-1-9"
       refX="0"
       refY="0"
       orient="auto"
       inkscape:stockid="Arrow1Mend">
      <path
         inkscape:connector-curvature="0"
         transform="matrix(-0.4,0,0,-0.4,-4,0)"
         style="fill:#000000;fill-opacity:1;fill-rule:evenodd;stroke:#000000;stroke-width:1pt;stroke-opacity:1"
         d="M 0,0 5,-5 -12.5,0 5,5 Z"
         id="path4694-8-4" />
    </marker>
    <marker
       inkscape:isstock="true"
       style="overflow:visible"
       id="DotM-3-1"
       refX="0"
       refY="0"
       orient="auto"
       inkscape:stockid="DotM">
      <path
         transform="matrix(0.4,0,0,0.4,2.96,0.4)"
         style="fill:#000000;fill-opacity:1;fill-rule:evenodd;stroke:#000000;stroke-width:1pt;stroke-opacity:1"
         d="m -2.5,-1 c 0,2.76 -2.24,5 -5,5 -2.76,0 -5,-2.24 -5,-5 0,-2.76 2.24,-5 5,-5 2.76,0 5,2.24 5,5 z"
         id="path4827-6-6"
         inkscape:connector-curvature="0" />
    </marker>
    <marker
       inkscape:isstock="true"
       style="overflow:visible"
       id="StopM-2"
       refX="0"
       refY="0"
       orient="auto"
       inkscape:stockid="StopM">
      <path
         transform="scale(0.4)"
         style="fill:none;fill-opacity:0.75;fill-rule:evenodd;stroke:#000000;stroke-width:1pt;stroke-opacity:1"
         d="M 0,5.65 V -5.65"
         id="path2422-9"
         inkscape:connector-curvature="0" />
    </marker>
    <marker
       inkscape:stockid="Arrow1Mend"
       orient="auto"
       refY="0"
       refX="0"
       id="marker3108-1"
       style="overflow:visible"
       inkscape:isstock="true">
      <path
         id="path3106-2"
         d="M 0,0 5,-5 -12.5,0 5,5 Z"
         style="fill:#000000;fill-opacity:1;fill-rule:evenodd;stroke:#000000;stroke-width:1pt;stroke-opacity:1"
         transform="matrix(-0.4,0,0,-0.4,-4,0)"
         inkscape:connector-curvature="0" />
    </marker>
    <marker
       inkscape:collect="always"
       inkscape:isstock="true"
       style="overflow:visible"
       id="marker1373-6"
       refX="0"
       refY="0"
       orient="auto"
       inkscape:stockid="Arrow1Mend">
      <path
         inkscape:connector-curvature="0"
         transform="matrix(-0.4,0,0,-0.4,-4,0)"
         style="fill:#000000;fill-opacity:1;fill-rule:evenodd;stroke:#000000;stroke-width:1pt;stroke-opacity:1"
         d="M 0,0 5,-5 -12.5,0 5,5 Z"
         id="path1371-4" />
    </marker>
    <marker
       inkscape:collect="always"
       inkscape:isstock="true"
       style="overflow:visible"
       id="marker1373-6-5"
       refX="0"
       refY="0"
       orient="auto"
       inkscape:stockid="Arrow1Mend">
      <path
         inkscape:connector-curvature="0"
         transform="matrix(-0.4,0,0,-0.4,-4,0)"
         style="fill:#000000;fill-opacity:1;fill-rule:evenodd;stroke:#000000;stroke-width:1pt;stroke-opacity:1"
         d="M 0,0 5,-5 -12.5,0 5,5 Z"
         id="path1371-4-5" />
    </marker>
  </defs>
  <sodipodi:namedview
     id="base"
     pagecolor="#ffffff"
     bordercolor="#666666"
     borderopacity="1.0"
     inkscape:pageopacity="0.0"
     inkscape:pageshadow="2"
     inkscape:zoom="0.90100794"
     inkscape:cx="448.38673"
     inkscape:cy="134.29404"
     inkscape:document-units="px"
     inkscape:current-layer="layer1"
     showgrid="false"
     inkscape:window-width="2580"
     inkscape:window-height="1052"
     inkscape:window-x="1920"
     inkscape:window-y="0"
     inkscape:window-maximized="1"
     fit-margin-top="0"
     fit-margin-left="0"
     fit-margin-right="0"
     fit-margin-bottom="0"
     inkscape:pagecheckerboard="0" />
  <metadata
     id="metadata7">
    <rdf:RDF>
      <cc:Work
         rdf:about="">
        <dc:format>image/svg+xml</dc:format>
        <dc:type
           rdf:resource="http://purl.org/dc/dcmitype/StillImage" />
      </cc:Work>
    </rdf:RDF>
  </metadata>
  <g
     inkscape:label="Layer 1"
     inkscape:groupmode="layer"
     id="layer1"
     transform="translate(-235.73306,-224.43737)">
    <g
       id="g1179"
       transform="matrix(0.09696239,0,0,0.09696239,450.92294,341.53032)" />
    <g
       id="g1181"
       transform="matrix(0.09696239,0,0,0.09696239,450.92294,341.53032)" />
    <g
       id="g1183"
       transform="matrix(0.09696239,0,0,0.09696239,450.92294,341.53032)" />
    <g
       id="g1185"
       transform="matrix(0.09696239,0,0,0.09696239,450.92294,341.53032)" />
    <g
       id="g1187"
       transform="matrix(0.09696239,0,0,0.09696239,450.92294,341.53032)" />
    <g
       id="g1189"
       transform="matrix(0.09696239,0,0,0.09696239,450.92294,341.53032)" />
    <g
       id="g1191"
       transform="matrix(0.09696239,0,0,0.09696239,450.92294,341.53032)" />
    <g
       id="g1193"
       transform="matrix(0.09696239,0,0,0.09696239,450.92294,341.53032)" />
    <g
       id="g1195"
       transform="matrix(0.09696239,0,0,0.09696239,450.92294,341.53032)" />
    <g
       id="g1197"
       transform="matrix(0.09696239,0,0,0.09696239,450.92294,341.53032)" />
    <g
       id="g1199"
       transform="matrix(0.09696239,0,0,0.09696239,450.92294,341.53032)" />
    <g
       id="g1201"
       transform="matrix(0.09696239,0,0,0.09696239,450.92294,341.53032)" />
    <g
       id="g1203"
       transform="matrix(0.09696239,0,0,0.09696239,450.92294,341.53032)" />
    <g
       id="g1205"
       transform="matrix(0.09696239,0,0,0.09696239,450.92294,341.53032)" />
    <g
       id="g1207"
       transform="matrix(0.09696239,0,0,0.09696239,450.92294,341.53032)" />
    <g
       id="g6119">
      <path
         id="rect5644"
         style="fill:#ffffff;stroke:#ffffff;stroke-width:0.65;stroke-miterlimit:10"
         d="M 236.05806,224.76237 H 1082.4749 V 501.05412 H 236.05806 Z" />
      <path
         inkscape:connector-curvature="0"
         style="fill:none;fill-opacity:1;stroke:#000000;stroke-width:2.8125;stroke-miterlimit:4;stroke-dasharray:none;stroke-dashoffset:0;stroke-opacity:1"
         d="m 584.72836,322.78491 v 11.28112 a 39.393164,39.393169 0 0 1 10.67504,-1.48132 39.393164,39.393169 0 0 1 10.67322,1.51245 v -11.31225 z"
         id="path1106" />
      <path
         inkscape:connector-curvature="0"
         style="fill:none;fill-opacity:1;stroke:#000000;stroke-width:2.8125;stroke-miterlimit:4;stroke-dasharray:none;stroke-dashoffset:0;stroke-opacity:1"
         d="m 606.07662,409.89 c 16.98296,-4.78011 28.71662,-20.26913 28.72009,-37.91198 -0.0174,-17.63131 -11.74824,-33.10389 -28.72009,-37.88086"
         id="path1104" />
      <path
         inkscape:connector-curvature="0"
         style="fill:none;fill-opacity:1;stroke:#000000;stroke-width:2.8125;stroke-miterlimit:4;stroke-dasharray:none;stroke-dashoffset:0;stroke-opacity:1"
         d="m 606.07662,409.89 a 39.393164,39.393169 0 0 1 -10.67322,1.48133 39.393164,39.393169 0 0 1 -10.67504,-1.51245 v 11.31225 h 21.34826 z"
         id="path1102" />
      <path
         inkscape:connector-curvature="0"
         style="fill:none;fill-opacity:1;stroke:#000000;stroke-width:2.8125;stroke-miterlimit:4;stroke-dasharray:none;stroke-dashoffset:0;stroke-opacity:1"
         d="m 584.72836,334.06603 c -16.98223,4.78079 -28.71502,20.26965 -28.71826,37.91199 0.0172,17.63079 11.74713,33.10321 28.71826,37.88086"
         id="path1110" />
      <path
         style="stroke-width:0.0945996"
         inkscape:connector-curvature="0"
         id="XMLID_904_"
         d="m 380.54552,307.58534 c 0.56514,0 1.07947,0.33639 1.30387,0.86 l 4.7699,11.12965 3.83176,-11.03619 c 0.19676,-0.56655 0.72832,-0.94817 1.32799,-0.95356 0.004,0 0.008,0 0.0126,0 0.59465,0 1.12677,0.37093 1.33205,0.93001 l 3.9712,10.81822 3.85948,-10.80649 c 0.19818,-0.55502 0.71886,-0.92973 1.30803,-0.94146 0.59049,-0.012 1.12441,0.34198 1.34454,0.88867 l 2.97819,7.39505 h 7.09601 v 2.83798 h -8.05431 c -0.57904,0 -1.09991,-0.35181 -1.31626,-0.88885 l -1.94033,-4.81796 -3.92078,10.97809 c -0.20093,0.56259 -0.73267,0.9391 -1.33007,0.94174 -0.002,0 -0.004,0 -0.006,0 -0.59494,0 -1.12687,-0.37111 -1.33206,-0.93 l -3.95228,-10.76677 -3.73015,10.74321 c -0.19223,0.5535 -0.70487,0.932 -1.29034,0.95271 -0.5868,0.0205 -1.12356,-0.3206 -1.35439,-0.85915 l -4.69999,-10.96665 -1.44302,4.61788 c -0.18513,0.59238 -0.73372,0.99575 -1.35438,0.99575 h -8.05431 v -2.83798 h 7.01106 l 2.27758,-7.28824 c 0.17719,-0.56703 0.68878,-0.9636 1.28211,-0.99387 0.0241,-10e-4 0.0484,-0.002 0.0726,-0.002 z" />
      <path
         d="m 389.73002,276.95942 q 0.85141,0.2311 1.45956,0.7906 0.62031,0.54733 1.10683,1.5447 l 2.63937,5.3882 h 2.21366 v 1.28928 h -4.28137 l -2.83398,-5.77742 q -0.81492,-1.67849 -1.49605,-2.16501 -0.68112,-0.49869 -1.8731,-0.49869 h -2.71234 v 7.15184 h 2.56639 v 1.28928 h -7.34645 v -1.28928 h 2.31097 V 269.1143 h -2.31097 v -1.30144 h 9.20739 q 2.65153,0 4.08676,1.26495 1.4474,1.26495 1.4474,3.58808 0,1.8731 -1.05818,2.95561 -1.04602,1.07034 -3.12589,1.33792 z m -5.77742,-0.72977 h 3.58808 q 1.83661,0 2.71235,-0.86358 0.87573,-0.87573 0.87573,-2.70018 0,-1.82445 -0.87573,-2.68802 -0.87574,-0.86357 -2.71235,-0.86357 h -3.58808 z"
         style="font-size:24.9098px;line-height:1.25;font-family:'DejaVu Serif';-inkscape-font-specification:'DejaVu Serif';letter-spacing:0px;word-spacing:0px;stroke-width:0.622746"
         id="path5880" />
      <path
         d="m 243.39539,385.95807 h -1.64201 l -2.49341,-11.62782 h -1.47172 l 0.24326,-1.30144 h 3.34482 l 2.18934,10.19259 q 1.39874,-1.2163 2.33529,-2.761 1.94608,-3.21103 2.63937,-6.13015 h -1.48388 l 0.25542,-1.30144 h 3.34482 q -1.32576,5.01115 -3.00426,7.8208 -1.45956,2.4326 -4.25704,5.10846 z"
         style="font-style:italic;font-size:24.9098px;line-height:1.25;font-family:'DejaVu Serif';-inkscape-font-specification:'DejaVu Serif Italic';letter-spacing:0px;word-spacing:0px;stroke-width:0.622746"
         id="path5883" />
      <path
         d="m 258.86671,389.83806 q -2.95561,-1.32576 -4.46382,-4.19623 -1.50821,-2.88263 -1.50821,-7.20049 0,-4.33002 1.50821,-7.20049 1.50821,-2.88262 4.46382,-4.20839 v 1.19197 q -1.8731,1.28928 -2.68802,3.63674 -0.81492,2.33529 -0.81492,6.58017 0,4.23272 0.81492,6.58018 0.81492,2.33529 2.68802,3.62457 z"
         style="font-size:24.9098px;line-height:1.25;font-family:'DejaVu Serif';-inkscape-font-specification:'DejaVu Serif';letter-spacing:0px;word-spacing:0px;stroke-width:0.622746"
         id="path5885" />
      <path
         d="m 263.97516,374.33025 h -1.9704 l 0.25542,-1.30144 h 1.97041 l 0.77843,-4.01378 h 2.25015 l -0.77843,4.01378 h 4.20839 l -0.25542,1.30144 h -4.20839 l -1.59335,8.21002 q -0.18245,0.96088 -0.18245,1.52037 0,0.38922 0.0851,0.58383 0.2311,0.46219 1.08251,0.46219 0.87573,0 1.37442,-0.51085 0.51084,-0.523 0.7541,-1.67849 h 1.69066 q -0.43787,1.76364 -1.45956,2.57856 -1.02169,0.81492 -2.78533,0.81492 -1.93391,0 -2.57855,-0.86358 -0.38922,-0.52301 -0.38922,-1.49604 0,-0.62032 0.15812,-1.41091 z"
         style="font-style:italic;font-size:24.9098px;line-height:1.25;font-family:'DejaVu Serif';-inkscape-font-specification:'DejaVu Serif Italic';letter-spacing:0px;word-spacing:0px;stroke-width:0.622746"
         id="path5887" />
      <path
         d="m 272.41628,389.83806 v -1.19197 q 1.8731,-1.28928 2.68802,-3.62457 0.82708,-2.34746 0.82708,-6.58018 0,-4.24488 -0.82708,-6.58017 -0.81492,-2.34746 -2.68802,-3.63674 v -1.19197 q 2.96777,1.32577 4.47598,4.20839 1.50821,2.87047 1.50821,7.20049 0,4.31786 -1.50821,7.20049 -1.50821,2.87047 -4.47598,4.19623 z"
         style="font-size:24.9098px;line-height:1.25;font-family:'DejaVu Serif';-inkscape-font-specification:'DejaVu Serif';letter-spacing:0px;word-spacing:0px;stroke-width:0.622746"
         id="path5889" />
      <path
         inkscape:connector-curvature="0"
         id="path6140"
         d="m 458.76368,304.10527 h 26.72985 v 17.9529"
         style="fill:none;stroke:#000000;stroke-width:2.03594;stroke-linecap:butt;stroke-linejoin:miter;stroke-miterlimit:4;stroke-dasharray:none;stroke-opacity:1;marker-end:url(#marker6265)" />
      <path
         d="m 458.99749,277.53007 q 0.10947,-0.5595 0.59599,-0.97304 0.48652,-0.41354 1.05818,-0.41354 0.5595,0 0.8879,0.41354 0.25542,0.31624 0.25542,0.70546 0,0.13379 -0.0365,0.26758 -0.10947,0.57166 -0.59599,0.97304 -0.47435,0.40138 -1.04601,0.40138 -0.57166,0 -0.90006,-0.40138 -0.24326,-0.30407 -0.24326,-0.69329 0,-0.13379 0.0243,-0.27975 z m -0.18244,15.65377 h 2.11636 l -0.24326,1.28927 h -4.35435 l 2.25015,-11.62781 h -2.14068 l 0.25542,-1.30144 h 4.37867 z"
         style="font-style:italic;font-size:24.9098px;line-height:1.25;font-family:'DejaVu Serif';-inkscape-font-specification:'DejaVu Serif Italic';letter-spacing:0px;word-spacing:0px;stroke-width:0.622746"
         id="path5892" />
      <path
         d="m 478.89614,298.35311 q -2.9556,-1.32577 -4.46381,-4.19623 -1.50822,-2.88263 -1.50822,-7.20049 0,-4.33003 1.50822,-7.20049 1.50821,-2.88263 4.46381,-4.2084 v 1.19198 q -1.8731,1.28927 -2.68802,3.63673 -0.81492,2.33529 -0.81492,6.58018 0,4.23272 0.81492,6.58017 0.81492,2.3353 2.68802,3.62457 z"
         style="font-size:24.9098px;line-height:1.25;font-family:'DejaVu Serif';-inkscape-font-specification:'DejaVu Serif';letter-spacing:0px;word-spacing:0px;stroke-width:0.622746"
         id="path5894" />
      <path
         d="m 484.0046,282.8453 h -1.97041 l 0.25543,-1.30144 h 1.9704 l 0.77843,-4.01379 h 2.25015 l -0.77843,4.01379 h 4.2084 l -0.25543,1.30144 h -4.20839 l -1.59335,8.21001 q -0.18245,0.96088 -0.18245,1.52038 0,0.38921 0.0851,0.58382 0.2311,0.46219 1.08251,0.46219 0.87574,0 1.37442,-0.51084 0.51084,-0.52301 0.7541,-1.67849 h 1.69066 q -0.43787,1.76363 -1.45956,2.57855 -1.02169,0.81492 -2.78532,0.81492 -1.93392,0 -2.57856,-0.86357 -0.38921,-0.52301 -0.38921,-1.49605 0,-0.62031 0.15812,-1.41091 z"
         style="font-style:italic;font-size:24.9098px;line-height:1.25;font-family:'DejaVu Serif';-inkscape-font-specification:'DejaVu Serif Italic';letter-spacing:0px;word-spacing:0px;stroke-width:0.622746"
         id="path5896" />
      <path
         d="m 492.44571,298.35311 v -1.19198 q 1.8731,-1.28927 2.68802,-3.62457 0.82708,-2.34745 0.82708,-6.58017 0,-4.24489 -0.82708,-6.58018 -0.81492,-2.34746 -2.68802,-3.63673 v -1.19198 q 2.96777,1.32577 4.47598,4.2084 1.50821,2.87046 1.50821,7.20049 0,4.31786 -1.50821,7.20049 -1.50821,2.87046 -4.47598,4.19623 z"
         style="font-size:24.9098px;line-height:1.25;font-family:'DejaVu Serif';-inkscape-font-specification:'DejaVu Serif';letter-spacing:0px;word-spacing:0px;stroke-width:0.622746"
         id="path5898" />
      <path
         inkscape:connector-curvature="0"
         id="XMLID_309_"
         d="m 472.69643,386.13302 h -2.90888 v -4.98387 c 0,-0.74137 0.55764,-1.36406 1.29455,-1.44561 1.52221,-0.16833 2.67015,-1.4524 2.67015,-2.98664 0,-1.34312 -0.90272,-2.53323 -2.19513,-2.89423 -0.62851,-0.17559 -1.06319,-0.74825 -1.06319,-1.40081 0,-0.65256 0.43468,-1.22532 1.06319,-1.40082 1.29251,-0.36099 2.19513,-1.5511 2.19513,-2.89432 0,-1.34313 -0.90272,-2.53324 -2.19513,-2.89423 -0.62851,-0.1756 -1.06319,-0.74826 -1.06319,-1.40082 0,-0.65256 0.43468,-1.22531 1.06319,-1.40082 1.29251,-0.36099 2.19513,-1.5511 2.19513,-2.89423 0,-1.34322 -0.90272,-2.53333 -2.19513,-2.89432 -0.62851,-0.1756 -1.06319,-0.74826 -1.06319,-1.40082 0,-0.65256 0.43468,-1.22531 1.06319,-1.40081 1.29251,-0.361 2.19513,-1.55111 2.19513,-2.89424 0,-1.53423 -1.14794,-2.81821 -2.67015,-2.98663 -0.73691,-0.0815 -1.29455,-0.70424 -1.29455,-1.44561 v -4.98387 h 2.90888 v 3.83001 c 2.33126,0.80925 3.96469,3.0199 3.96469,5.5861 0,1.66039 -0.70123,3.20199 -1.85363,4.29505 1.1524,1.09296 1.85363,2.63466 1.85363,4.29514 0,1.66039 -0.70123,3.20199 -1.85363,4.29505 1.1524,1.09296 1.85363,2.63466 1.85363,4.29505 0,1.66048 -0.70123,3.20208 -1.85363,4.29514 1.1524,1.09296 1.85363,2.63466 1.85363,4.29504 0,2.56631 -1.63343,4.77695 -3.96469,5.5861 z"
         style="stroke-width:0.0969624" />
      <path
         sodipodi:nodetypes="cc"
         inkscape:connector-curvature="0"
         id="path3368"
         d="m 471.27036,385.46434 0.1216,15.03683"
         style="fill:none;stroke:#000000;stroke-width:2.8125;stroke-linecap:butt;stroke-linejoin:miter;stroke-miterlimit:4;stroke-dasharray:none;stroke-opacity:1" />
      <path
         d="m 488.07928,375.00534 v -1.28928 h 2.31097 v -15.56862 h -2.31097 V 356.846 h 7.09102 v 1.30144 h -2.31096 v 15.36185 h 8.29515 v -3.04074 h 1.49605 v 4.53679 z"
         style="font-size:24.9098px;line-height:1.25;font-family:'DejaVu Serif';-inkscape-font-specification:'DejaVu Serif';letter-spacing:0px;word-spacing:0px;stroke-width:0.622746"
         id="path5901" />
      <path
         d="m 275.62102,336.4444 h 7.21154 v -7.48077 h 2.4423 v 7.48077 h 7.11539 v 2.44231 h -7.11539 v 7.40385 h -2.4423 v -7.40385 h -7.21154 z"
         id="path5904"
         style="font-size:37.5px;line-height:1.25;font-family:Alfa-beta;-inkscape-font-specification:Alfa-beta;letter-spacing:0px;word-spacing:0px;stroke-width:0.9375" />
      <path
         d="m 279.57871,428.97861 v -1.96154 h 18.11539 v 1.96154 z"
         id="path5907"
         style="font-size:37.5px;line-height:1.25;font-family:Alfa-beta;-inkscape-font-specification:Alfa-beta;letter-spacing:0px;word-spacing:0px;stroke-width:0.9375" />
      <path
         inkscape:connector-curvature="0"
         id="path1122"
         d="m 372.18673,317.24668 -60.96327,0.0927"
         style="fill:none;stroke:#000000;stroke-width:2.8125;stroke-linecap:butt;stroke-linejoin:miter;stroke-miterlimit:4;stroke-dasharray:none;stroke-opacity:1;marker-end:url(#DotM)" />
      <path
         sodipodi:nodetypes="ccc"
         inkscape:connector-curvature="0"
         id="path1706"
         d="m 412.82296,317.29257 58.28726,-0.19815 0.0951,25.83183"
         style="fill:none;stroke:#000000;stroke-width:2.86744;stroke-linecap:butt;stroke-linejoin:miter;stroke-miterlimit:4;stroke-dasharray:none;stroke-opacity:1" />
      <path
         d="m 410.00059,280.26613 h -1.17981 q 0.0487,-0.25543 0.0487,-0.48652 0,-0.5595 -0.29191,-0.90007 -0.41355,-0.47435 -1.37442,-0.47435 -1.25279,0 -1.89743,0.69329 -0.64464,0.68113 -0.9852,2.44476 l -0.3284,1.66633 h 3.61241 l -0.25543,1.30144 h -3.6124 l -2.40828,12.43057 q -0.4257,2.16501 -1.76363,3.27185 -1.33793,1.10683 -3.5151,1.10683 l 0.14595,-1.19198 q 1.27712,0 1.89743,-0.68112 0.64464,-0.72978 0.99736,-2.50558 l 2.40828,-12.43057 h -2.14069 l 0.25542,-1.30144 h 2.14069 l 0.31624,-1.61768 q 0.4257,-2.17717 1.76363,-3.27184 1.33793,-1.10683 3.5151,-1.10683 0.81492,0 1.59335,0.14595 0.7906,0.14596 1.5447,0.45003 z"
         style="font-style:italic;font-size:24.9098px;line-height:1.25;font-family:'DejaVu Serif';-inkscape-font-specification:'DejaVu Serif Italic';letter-spacing:0px;word-spacing:0px;stroke-width:0.622746"
         id="path5911" />
      <path
         d="m 472.63734,288.26167 h -1.17981 q 0.0487,-0.25542 0.0487,-0.48652 0,-0.5595 -0.29192,-0.90006 -0.41354,-0.47436 -1.37441,-0.47436 -1.25279,0 -1.89743,0.69329 -0.64464,0.68113 -0.9852,2.44476 l -0.3284,1.66633 h 3.61241 l -0.25543,1.30144 h -3.6124 l -2.40828,12.43058 q -0.4257,2.16501 -1.76363,3.27184 -1.33793,1.10683 -3.5151,1.10683 l 0.14595,-1.19197 q 1.27712,0 1.89743,-0.68113 0.64464,-0.72978 0.99736,-2.50557 l 2.40828,-12.43058 h -2.14069 l 0.25542,-1.30144 h 2.14069 l 0.31624,-1.61767 q 0.4257,-2.17718 1.76363,-3.27185 1.33793,-1.10683 3.5151,-1.10683 0.81492,0 1.59335,0.14596 0.7906,0.14595 1.5447,0.45003 z"
         style="font-style:italic;font-size:24.9098px;line-height:1.25;font-family:'DejaVu Serif';-inkscape-font-specification:'DejaVu Serif Italic';letter-spacing:0px;word-spacing:0px;stroke-width:0.622746"
         id="path5914" />
      <path
         d="m 516.82945,367.03886 h -1.17981 q 0.0487,-0.25542 0.0487,-0.48652 0,-0.5595 -0.29191,-0.90006 -0.41354,-0.47436 -1.37442,-0.47436 -1.25278,0 -1.89742,0.69329 -0.64464,0.68113 -0.9852,2.44476 l -0.3284,1.66633 h 3.6124 l -0.25542,1.30144 h -3.61241 l -2.40827,12.43058 q -0.4257,2.16501 -1.76363,3.27184 -1.33793,1.10683 -3.51511,1.10683 l 0.14596,-1.19197 q 1.27711,0 1.89743,-0.68113 0.64464,-0.72978 0.99736,-2.50557 l 2.40827,-12.43058 h -2.14068 l 0.25542,-1.30144 h 2.14069 l 0.31623,-1.61767 q 0.42571,-2.17718 1.76364,-3.27185 1.33793,-1.10683 3.5151,-1.10683 0.81492,0 1.59335,0.14596 0.7906,0.14595 1.5447,0.45003 z"
         style="font-style:italic;font-size:24.9098px;line-height:1.25;font-family:'DejaVu Serif';-inkscape-font-specification:'DejaVu Serif Italic';letter-spacing:0px;word-spacing:0px;stroke-width:0.622746"
         id="path5917" />
      <path
         style="stroke-width:0.0945996"
         inkscape:connector-curvature="0"
         id="XMLID_904_-2"
         d="m 605.22734,269.37297 c 0,0.56514 -0.33639,1.07947 -0.86,1.30387 l -11.12965,4.7699 11.03619,3.83176 c 0.56655,0.19676 0.94817,0.72832 0.95356,1.32799 0,0.004 0,0.008 0,0.0126 0,0.59465 -0.37093,1.12677 -0.93001,1.33205 l -10.81822,3.9712 10.80649,3.85948 c 0.55502,0.19818 0.92973,0.71886 0.94146,1.30803 0.012,0.59049 -0.34198,1.12441 -0.88867,1.34454 l -7.39505,2.97819 v 7.09601 h -2.83798 v -8.05431 c 0,-0.57904 0.35181,-1.09991 0.88885,-1.31626 l 4.81796,-1.94033 -10.97809,-3.92078 c -0.56259,-0.20093 -0.9391,-0.73267 -0.94174,-1.33007 0,-0.002 0,-0.004 0,-0.006 0,-0.59494 0.37111,-1.12687 0.93,-1.33206 l 10.76677,-3.95228 -10.74321,-3.73015 c -0.5535,-0.19223 -0.932,-0.70487 -0.95271,-1.29034 -0.0205,-0.5868 0.3206,-1.12356 0.85915,-1.35439 l 10.96665,-4.69999 -4.61788,-1.44302 c -0.59238,-0.18513 -0.99575,-0.73372 -0.99575,-1.35438 v -8.05431 h 2.83798 v 7.01106 l 7.28824,2.27758 c 0.56703,0.17719 0.9636,0.68878 0.99387,1.28211 10e-4,0.0241 0.002,0.0484 0.002,0.0726 z" />
      <path
         sodipodi:nodetypes="cccc"
         inkscape:connector-curvature="0"
         id="path1122-9"
         d="m 311.22346,444.46192 60.96327,-0.0927 99.54309,-0.23375 -0.33786,-43.6343"
         style="fill:none;stroke:#000000;stroke-width:2.8125;stroke-linecap:butt;stroke-linejoin:miter;stroke-miterlimit:4;stroke-dasharray:none;stroke-opacity:1;marker-start:url(#marker2201)" />
      <path
         sodipodi:nodetypes="cccc"
         inkscape:connector-curvature="0"
         id="path1122-2"
         d="m 471.72982,444.13547 60.96327,-0.0927 63.5096,-0.17241 -0.25928,-22.41182"
         style="fill:none;stroke:#000000;stroke-width:2.8125;stroke-linecap:butt;stroke-linejoin:miter;stroke-miterlimit:4;stroke-dasharray:none;stroke-opacity:1;marker-start:url(#marker3152)" />
      <path
         d="m 353.47608,334.48919 h 5.31467 v -5.51309 h 1.7999 v 5.51309 h 5.24381 v 1.7999 h -5.24381 v 5.4564 h -1.7999 v -5.4564 h -5.31467 z"
         id="path5920"
         style="font-size:27.6363px;line-height:1.25;font-family:Alfa-beta;-inkscape-font-specification:Alfa-beta;letter-spacing:0px;word-spacing:0px;stroke-width:0.690908" />
      <path
         d="m 443.7771,342.98385 h 5.31467 v -5.51309 h 1.79991 v 5.51309 h 5.24381 v 1.7999 h -5.24381 v 5.4564 h -1.79991 v -5.4564 h -5.31467 z"
         id="path5923"
         style="font-size:27.6363px;line-height:1.25;font-family:Alfa-beta;-inkscape-font-specification:Alfa-beta;letter-spacing:0px;word-spacing:0px;stroke-width:0.690908" />
      <path
         d="m 404.98371,334.61798 v -1.96153 h 14.52714 v 1.96153 z"
         id="path5926"
         style="font-size:33.5813px;line-height:1.25;font-family:Alfa-beta;-inkscape-font-specification:Alfa-beta;letter-spacing:0px;word-spacing:0px;stroke-width:0.839533" />
      <path
         d="m 447.04703,389.41602 v -1.96154 h 14.52715 v 1.96154 z"
         id="path5929"
         style="font-size:33.5813px;line-height:1.25;font-family:Alfa-beta;-inkscape-font-specification:Alfa-beta;letter-spacing:0px;word-spacing:0px;stroke-width:0.839533" />
      <path
         inkscape:connector-curvature="0"
         id="path1122-92"
         d="m 595.5545,259.88915 -0.0927,-27.24526"
         style="fill:none;stroke:#000000;stroke-width:2.8125;stroke-linecap:butt;stroke-linejoin:miter;stroke-miterlimit:4;stroke-dasharray:none;stroke-opacity:1;marker-end:url(#DotM-37)" />
      <path
         inkscape:connector-curvature="0"
         id="path4523"
         d="m 595.50199,302.4309 v 20.23827"
         style="fill:none;stroke:#000000;stroke-width:2.8125;stroke-linecap:butt;stroke-linejoin:miter;stroke-miterlimit:4;stroke-dasharray:none;stroke-opacity:1" />
      <path
         d="m 624.62756,288.36966 h 2.78321 l -0.29297,1.55273 h -8.54004 l 0.29297,-1.55273 h 2.7832 l 3.64746,-18.75 h -2.7832 l 0.30762,-1.56738 h 8.54003 l -0.30761,1.56738 h -2.78321 z"
         style="font-style:italic;font-size:37.5px;line-height:1.25;font-family:serif;-inkscape-font-specification:'serif Italic';letter-spacing:0px;word-spacing:0px;stroke-width:0.9375"
         id="path5932" />
      <path
         d="m 637.96643,294.34183 q -1.26636,1.85669 -3.31348,1.85669 -1.67578,0 -2.52319,-1.13306 -0.59033,-0.7998 -0.59033,-1.94238 0,-0.4856 0.10474,-1.02832 0.64746,-3.36109 2.98974,-5.094 1.98999,-1.47583 4.39893,-1.47583 1.61865,0 2.1709,0.27613 l -1.771,9.11206 h 1.50439 l -0.19043,1.00927 h -3.08496 z m -4.57983,-1.27588 q 0,2.0376 1.97094,2.0376 1.19971,0 2.00904,-0.95215 0.81884,-0.96167 1.18066,-2.7898 l 0.8855,-4.58935 v 0 q 0,-0.27613 -0.76172,-0.27613 -1.82812,0 -3.24683,1.42823 -1.40918,1.43774 -1.91381,4.04663 -0.12378,0.60937 -0.12378,1.09497 z"
         style="font-style:italic;font-size:24.375px;line-height:1.25;font-family:serif;-inkscape-font-specification:'serif Italic';letter-spacing:0px;word-spacing:0px;baseline-shift:sub;stroke-width:0.9375"
         id="path5934" />
      <path
         d="m 655.22302,276.35794 h 18.7793 v 2.34375 h -18.7793 z m 0,5.97656 h 18.7793 v 2.34375 h -18.7793 z"
         style="font-size:30px;line-height:1.25;font-family:serif;-inkscape-font-specification:serif;letter-spacing:0px;word-spacing:0px;stroke-width:0.9375"
         id="path5936" />
      <path
         d="m 702.14197,285.24954 q -0.57129,2.49024 -2.19727,3.79395 -1.62597,1.30371 -4.2041,1.30371 -3.39844,0 -5.46387,-2.24121 -2.06543,-2.25586 -2.06543,-5.97656 0,-3.73536 2.06543,-5.96192 2.06543,-2.24121 5.46387,-2.24121 1.47949,0 2.94434,0.35156 1.46484,0.33692 2.94433,1.04004 v 3.98438 h -1.56738 q -0.30762,-2.05078 -1.34766,-2.98828 -1.02539,-0.9375 -2.94433,-0.9375 -2.18262,0 -3.2959,1.69921 -1.11328,1.68457 -1.11328,5.05372 0,3.36914 1.09863,5.06835 1.11328,1.69922 3.31055,1.69922 1.74316,0 2.7832,-0.9082 1.04004,-0.9082 1.4209,-2.73926 z"
         style="font-size:30px;line-height:1.25;font-family:serif;-inkscape-font-specification:serif;letter-spacing:0px;word-spacing:0px;stroke-width:0.9375"
         id="path5938" />
      <path
         d="m 706.75623,275.91849 h -2.37305 v -1.56739 h 2.37305 v -4.83398 h 2.70996 v 4.83398 h 5.06836 v 1.56739 h -5.06836 v 9.88769 q 0,1.97754 0.38086,2.53418 0.38086,0.55664 1.40625,0.55664 1.05468,0 1.53808,-0.61523 0.4834,-0.62988 0.5127,-2.02149 h 2.03613 q -0.11719,2.12403 -1.15723,3.10547 -1.04004,0.98145 -3.16406,0.98145 -2.3291,0 -3.2959,-1.02539 -0.96679,-1.04004 -0.96679,-3.51563 z"
         style="font-size:30px;line-height:1.25;font-family:serif;-inkscape-font-specification:serif;letter-spacing:0px;word-spacing:0px;stroke-width:0.9375"
         id="path5940" />
      <path
         d="m 731.83435,282.42239 h -11.61621 v 0.11719 q 0,3.14942 1.18652,4.76074 1.18653,1.59668 3.50098,1.59668 1.77246,0 2.90039,-0.92285 1.14258,-0.9375 1.59668,-2.76855 h 2.16797 q -0.64453,2.56347 -2.3877,3.85254 -1.72851,1.28906 -4.55566,1.28906 -3.41309,0 -5.49316,-2.24121 -2.06543,-2.25586 -2.06543,-5.97656 0,-3.69141 2.03613,-5.94727 2.03613,-2.25586 5.34668,-2.25586 3.53027,0 5.41992,2.18262 1.88965,2.16797 1.96289,6.31347 z m -3.17871,-1.55273 q -0.0879,-2.72461 -1.15723,-4.10156 -1.05468,-1.3916 -3.04687,-1.3916 -1.86035,0 -2.92969,1.3916 -1.06934,1.3916 -1.30371,4.10156 z"
         style="font-size:30px;line-height:1.25;font-family:serif;-inkscape-font-specification:serif;letter-spacing:0px;word-spacing:0px;stroke-width:0.9375"
         id="path5942" />
      <path
         d="m 985.70037,426.17322 v -1.28928 h 2.32313 v -15.42267 h -5.33955 v 2.83398 h -1.49605 v -4.28137 h 16.12812 v 4.28137 h -1.49604 v -2.83398 h -5.33956 v 15.42267 h 2.32313 v 1.28928 z"
         style="font-size:24.9098px;line-height:1.25;font-family:'DejaVu Serif';-inkscape-font-specification:'DejaVu Serif';letter-spacing:0px;word-spacing:0px;stroke-width:0.622746"
         id="path5945" />
      <path
         d="m 1005.5017,430.05321 q -2.9556,-1.32576 -4.4638,-4.19623 -1.50821,-2.88263 -1.50821,-7.20049 0,-4.33002 1.50821,-7.20049 1.5082,-2.88263 4.4638,-4.20839 v 1.19197 q -1.8731,1.28928 -2.688,3.63673 -0.8149,2.3353 -0.8149,6.58018 0,4.23272 0.8149,6.58018 0.8149,2.33529 2.688,3.62457 z"
         style="font-size:24.9098px;line-height:1.25;font-family:'DejaVu Serif';-inkscape-font-specification:'DejaVu Serif';letter-spacing:0px;word-spacing:0px;stroke-width:0.622746"
         id="path5947" />
      <path
         d="m 1010.6102,414.5454 h -1.9704 l 0.2554,-1.30144 h 1.9704 l 0.7784,-4.01378 h 2.2502 l -0.7785,4.01378 h 4.2084 l -0.2554,1.30144 h -4.2084 l -1.5933,8.21002 q -0.1825,0.96087 -0.1825,1.52037 0,0.38922 0.085,0.58383 0.2311,0.46219 1.0825,0.46219 0.8757,0 1.3744,-0.51085 0.5108,-0.52301 0.7541,-1.67849 h 1.6907 q -0.4379,1.76363 -1.4596,2.57855 -1.0217,0.81492 -2.7853,0.81492 -1.9339,0 -2.5786,-0.86357 -0.3892,-0.52301 -0.3892,-1.49605 0,-0.62031 0.1581,-1.4109 z"
         style="font-style:italic;font-size:24.9098px;line-height:1.25;font-family:'DejaVu Serif';-inkscape-font-specification:'DejaVu Serif Italic';letter-spacing:0px;word-spacing:0px;stroke-width:0.622746"
         id="path5949" />
      <path
         d="m 1019.0513,430.05321 v -1.19197 q 1.8731,-1.28928 2.688,-3.62457 0.8271,-2.34746 0.8271,-6.58018 0,-4.24488 -0.8271,-6.58018 -0.8149,-2.34745 -2.688,-3.63673 v -1.19197 q 2.9678,1.32576 4.476,4.20839 1.5082,2.87047 1.5082,7.20049 0,4.31786 -1.5082,7.20049 -1.5082,2.87047 -4.476,4.19623 z"
         style="font-size:24.9098px;line-height:1.25;font-family:'DejaVu Serif';-inkscape-font-specification:'DejaVu Serif';letter-spacing:0px;word-spacing:0px;stroke-width:0.622746"
         id="path5951" />
      <path
         sodipodi:nodetypes="csc"
         inkscape:connector-curvature="0"
         id="path1358"
         d="m 995.8236,353.04348 c 9.9432,0 18.0038,9.54542 18.0038,21.32028 0,11.77486 -9.0082,15.16109 -18.0038,21.32028"
         style="fill:none;stroke:#000000;stroke-width:2.19844;stroke-miterlimit:4;stroke-dasharray:none;stroke-opacity:1;marker-end:url(#marker1373)" />
      <path
         style="fill:none;stroke:#000000;stroke-width:2.8125;stroke-miterlimit:4;stroke-dasharray:none;stroke-opacity:1;marker-end:url(#marker1793)"
         d="m 900.19856,353.04348 c 9.9432,0 18.0038,9.54542 18.0038,21.32028 0,11.77486 -9.0082,15.16109 -18.0038,21.32028"
         id="path1789"
         inkscape:connector-curvature="0"
         sodipodi:nodetypes="csc" />
      <path
         d="m 888.887,428.22978 q 2.97994,0 4.90169,-2.04338 1.92175,-2.05554 2.70018,-6.06933 0.77843,-4.02595 -0.34056,-6.06933 -1.119,-2.05554 -4.09893,-2.05554 -2.99209,0 -4.91385,2.05554 -1.92175,2.04338 -2.70018,6.06933 -0.77843,4.01379 0.34056,6.06933 1.119,2.04338 4.11109,2.04338 z m -0.25542,1.30144 q -1.84877,0 -3.28401,-0.60815 -1.42307,-0.60814 -2.37178,-1.78795 -1.09467,-1.36226 -1.42307,-3.0894 -0.3284,-1.72715 0.0973,-3.92865 0.4257,-2.2015 1.42306,-3.92864 0.99737,-1.73931 2.62721,-3.10157 1.42307,-1.19197 3.07724,-1.78796 1.65416,-0.60814 3.52726,-0.60814 3.95297,0 5.87473,2.59071 1.93391,2.59072 1.10683,6.8356 -0.42571,2.17718 -1.43523,3.92865 -1.00953,1.7393 -2.62721,3.0894 -1.42307,1.19197 -3.07724,1.80012 -1.65416,0.59598 -3.5151,0.59598 z"
         style="font-style:italic;font-size:24.9098px;line-height:1.25;font-family:'DejaVu Serif';-inkscape-font-specification:'DejaVu Serif Italic';letter-spacing:0px;word-spacing:0px;stroke-width:0.622746"
         id="path5954" />
      <path
         d="m 908.61537,433.05849 q -2.95561,-1.32577 -4.46382,-4.19623 -1.50821,-2.88263 -1.50821,-7.20049 0,-4.33002 1.50821,-7.20049 1.50821,-2.88263 4.46382,-4.20839 v 1.19197 q -1.8731,1.28928 -2.68802,3.63673 -0.81492,2.3353 -0.81492,6.58018 0,4.23272 0.81492,6.58018 0.81492,2.33529 2.68802,3.62457 z"
         style="font-size:24.9098px;line-height:1.25;font-family:'DejaVu Serif';-inkscape-font-specification:'DejaVu Serif';letter-spacing:0px;word-spacing:0px;stroke-width:0.622746"
         id="path5956" />
      <path
         d="m 913.72383,417.55068 h -1.97041 l 0.25542,-1.30144 h 1.97041 l 0.77843,-4.01379 h 2.25015 l -0.77843,4.01379 h 4.20839 l -0.25542,1.30144 h -4.20839 l -1.59335,8.21002 q -0.18245,0.96087 -0.18245,1.52037 0,0.38922 0.0851,0.58382 0.2311,0.4622 1.08251,0.4622 0.87573,0 1.37442,-0.51085 0.51084,-0.52301 0.7541,-1.67849 h 1.69066 q -0.43787,1.76363 -1.45956,2.57855 -1.02169,0.81492 -2.78533,0.81492 -1.93391,0 -2.57855,-0.86357 -0.38921,-0.52301 -0.38921,-1.49605 0,-0.62031 0.15811,-1.4109 z"
         style="font-style:italic;font-size:24.9098px;line-height:1.25;font-family:'DejaVu Serif';-inkscape-font-specification:'DejaVu Serif Italic';letter-spacing:0px;word-spacing:0px;stroke-width:0.622746"
         id="path5958" />
      <path
         d="m 922.16494,433.05849 v -1.19197 q 1.8731,-1.28928 2.68802,-3.62457 0.82708,-2.34746 0.82708,-6.58018 0,-4.24488 -0.82708,-6.58018 -0.81492,-2.34745 -2.68802,-3.63673 v -1.19197 q 2.96777,1.32576 4.47598,4.20839 1.50821,2.87047 1.50821,7.20049 0,4.31786 -1.50821,7.20049 -1.50821,2.87046 -4.47598,4.19623 z"
         style="font-size:24.9098px;line-height:1.25;font-family:'DejaVu Serif';-inkscape-font-specification:'DejaVu Serif';letter-spacing:0px;word-spacing:0px;stroke-width:0.622746"
         id="path5960" />
      <path
         d="m 585.71259,487.43884 q 0,4.6923 -1.25,7.34615 -1.25,2.65385 -3.46154,2.65385 -1.17308,0 -2.09616,-0.98077 -0.90384,-1 -1.26923,-2.8077 -0.53846,1.67308 -1.61538,2.65385 -1.07693,0.98077 -2.28846,0.98077 -1.78847,0 -3.19231,-2.32692 -1.40385,-2.34616 -1.40385,-7.01923 0,-3.32693 0.80769,-5.40385 0.8077,-2.09615 1.86539,-2.98077 1.05769,-0.90385 2.11538,-0.90385 l 0.19231,0.78847 q -1.25,1.9423 -1.40384,3.88461 -0.15385,1.94231 -0.15385,4.84615 0,3.38462 0.40385,5.38462 0.42307,1.98077 1.42307,1.98077 0.86539,0 1.61539,-1.19231 0.76923,-1.19231 0.84615,-2.36538 -0.73077,-1.59616 -0.73077,-2.82693 0,-0.78846 0.36539,-1.86538 0.36538,-1.09615 1.15384,-1.09615 0.59616,0 0.88462,1.11538 0.30769,1.09615 0.30769,1.84615 0,1.38462 -0.61538,2.82693 0,0.6923 0.34615,1.63461 0.34615,0.94231 0.88461,1.44231 0.5577,0.48077 1.17308,0.48077 0.55769,0 0.96154,-0.55769 0.42308,-0.5577 0.63462,-1.98077 0.21153,-1.44231 0.23076,-3.32693 0.0385,-1.90384 -0.13461,-3.46153 -0.15385,-1.57693 -0.44231,-2.82693 -0.26923,-1.25 -0.5,-2.30769 -0.23077,-1.07692 -0.63461,-1.63461 l 0.21153,-0.78847 q 1.36539,0 2.42308,1.17308 1.05769,1.15385 1.69231,3.19231 0.65385,2.01923 0.65385,4.42308 z"
         id="path5963"
         style="font-size:37.5px;line-height:1.25;font-family:Alfa-beta;-inkscape-font-specification:Alfa-beta;letter-spacing:0px;word-spacing:0px;stroke-width:0.9375" />
      <path
         inkscape:connector-curvature="0"
         id="path2522"
         d="m 794.93737,343.9008 h 74.76485"
         style="fill:none;stroke:#000000;stroke-width:2.8125;stroke-miterlimit:4;stroke-dasharray:none;stroke-opacity:1" />
      <path
         inkscape:connector-curvature="0"
         id="path2518"
         d="M 869.70222,403.06724 H 794.93737"
         style="fill:none;stroke:#000000;stroke-width:2.8125;stroke-miterlimit:4;stroke-dasharray:none;stroke-opacity:1" />
      <path
         inkscape:connector-curvature="0"
         id="path2513"
         d="m 794.93737,403.82135 c -10.10009,-10e-6 -18.28783,-13.41367 -18.28783,-29.96027 0,-16.5466 8.18774,-29.96027 18.28783,-29.96028"
         style="fill:none;stroke:#000000;stroke-width:2.8125;stroke-miterlimit:4;stroke-dasharray:none;stroke-opacity:1" />
      <path
         inkscape:connector-curvature="0"
         id="path2508"
         d="m 869.70222,343.14669 c 10.1001,0 18.2879,13.41367 18.2879,29.96028 0,16.5466 -8.1878,29.96027 -18.2879,29.96027"
         style="fill:none;stroke:#000000;stroke-width:2.8125;stroke-miterlimit:4;stroke-dasharray:none;stroke-opacity:1" />
      <path
         sodipodi:nodetypes="cccccc"
         inkscape:connector-curvature="0"
         id="rect1356"
         d="M 603.09191,365.56016 H 785.7549 c 12.89831,5.89533 9.40885,11.01213 0,15.84771 v 0 H 603.09191 Z"
         style="fill:#ffffff;stroke:#000000;stroke-width:2.8125;stroke-miterlimit:4;stroke-dasharray:none;stroke-opacity:1" />
      <path
         style="fill:none;stroke:#000000;stroke-width:2.8125;stroke-miterlimit:4;stroke-dasharray:none;stroke-opacity:1"
         d="m 792.00345,403.82135 c 10.10009,-10e-6 18.28783,-13.41367 18.28783,-29.96027 0,-16.5466 -8.18774,-29.96027 -18.28783,-29.96028"
         id="path2524"
         inkscape:connector-curvature="0" />
      <path
         d="m 837.88178,387.41127 v -2.85831 h 1.38658 q 0.0365,1.20414 0.57166,1.78796 0.53517,0.59599 1.60552,0.59599 1.44739,0 2.01905,-0.91223 0.57166,-0.91222 0.57166,-3.56375 v -16.26192 h -2.82181 v -1.30144 h 7.60187 v 1.30144 h -2.31097 v 16.35922 q 0,3.00426 -1.20414,4.34219 -1.20413,1.33793 -3.87999,1.33793 -0.86357,0 -1.75147,-0.20677 -0.90006,-0.20677 -1.78796,-0.62031 z"
         style="font-size:24.9098px;line-height:1.25;font-family:'DejaVu Serif';-inkscape-font-specification:'DejaVu Serif';letter-spacing:0px;word-spacing:0px;stroke-width:0.622746"
         id="path5966" />
      <path
         style="fill:none;stroke:#000000;stroke-width:2.8125;stroke-linecap:butt;stroke-linejoin:miter;stroke-miterlimit:4;stroke-dasharray:none;stroke-opacity:1"
         d="m 709.2369,381.98138 v 25.35219"
         id="path5906"
         inkscape:connector-curvature="0" />
      <path
         style="fill:none;stroke:#000000;stroke-width:2.8125;stroke-linecap:butt;stroke-linejoin:miter;stroke-miterlimit:4;stroke-dasharray:none;stroke-opacity:1"
         d="m 691.66322,406.86482 h 35.14735"
         id="path5908"
         inkscape:connector-curvature="0" />
      <path
         style="fill:none;stroke:#000000;stroke-width:2.8125;stroke-linecap:butt;stroke-linejoin:miter;stroke-miterlimit:4;stroke-dasharray:none;stroke-opacity:1"
         d="m 681.86806,397.25031 v 19.87842 h 54.73767 v -20.16652"
         id="path5910"
         inkscape:connector-curvature="0" />
      <path
         style="fill:none;stroke:#000000;stroke-width:2.8125;stroke-linecap:butt;stroke-linejoin:miter;stroke-miterlimit:4;stroke-dasharray:none;stroke-opacity:1"
         d="m 685.61806,417.12873 -9.50707,11.23563"
         id="path5912"
         inkscape:connector-curvature="0" />
      <path
         style="fill:none;stroke:#000000;stroke-width:2.8125;stroke-linecap:butt;stroke-linejoin:miter;stroke-miterlimit:4;stroke-dasharray:none;stroke-opacity:1"
         d="m 695.84534,417.12873 -9.50707,11.23563"
         id="path5912-3"
         inkscape:connector-curvature="0" />
      <path
         style="fill:none;stroke:#000000;stroke-width:2.8125;stroke-linecap:butt;stroke-linejoin:miter;stroke-miterlimit:4;stroke-dasharray:none;stroke-opacity:1"
         d="m 716.29995,417.12873 -9.50707,11.23563"
         id="path5912-5"
         inkscape:connector-curvature="0" />
      <path
         style="fill:none;stroke:#000000;stroke-width:2.8125;stroke-linecap:butt;stroke-linejoin:miter;stroke-miterlimit:4;stroke-dasharray:none;stroke-opacity:1"
         d="m 726.52727,417.12873 -9.50707,11.23563"
         id="path5912-0"
         inkscape:connector-curvature="0" />
      <path
         style="fill:none;stroke:#000000;stroke-width:2.8125;stroke-linecap:butt;stroke-linejoin:miter;stroke-miterlimit:4;stroke-dasharray:none;stroke-opacity:1"
         d="m 736.75458,417.12873 -9.50707,11.23563"
         id="path5912-1"
         inkscape:connector-curvature="0" />
      <path
         style="fill:none;stroke:#000000;stroke-width:2.8125;stroke-linecap:butt;stroke-linejoin:miter;stroke-miterlimit:4;stroke-dasharray:none;stroke-opacity:1"
         d="m 706.07265,417.12873 -9.50707,11.23563"
         id="path5912-4"
         inkscape:connector-curvature="0" />
      <path
         style="fill:none;stroke:#000000;stroke-width:2.8125;stroke-linecap:butt;stroke-linejoin:miter;stroke-miterlimit:4;stroke-dasharray:none;stroke-opacity:1"
         d="M 709.2369,364.0171 V 338.66491"
         id="path5906-7"
         inkscape:connector-curvature="0" />
      <path
         style="fill:none;stroke:#000000;stroke-width:2.8125;stroke-linecap:butt;stroke-linejoin:miter;stroke-miterlimit:4;stroke-dasharray:none;stroke-opacity:1"
         d="m 691.66322,339.13366 h 35.14735"
         id="path5908-0"
         inkscape:connector-curvature="0" />
      <path
         style="fill:none;stroke:#000000;stroke-width:2.8125;stroke-linecap:butt;stroke-linejoin:miter;stroke-miterlimit:4;stroke-dasharray:none;stroke-opacity:1"
         d="m 681.86806,348.74817 v -19.87842 h 54.73767 v 20.16652"
         id="path5910-7"
         inkscape:connector-curvature="0" />
      <path
         style="fill:none;stroke:#000000;stroke-width:2.8125;stroke-linecap:butt;stroke-linejoin:miter;stroke-miterlimit:4;stroke-dasharray:none;stroke-opacity:1"
         d="m 685.61806,328.86975 -9.50707,-11.23563"
         id="path5912-8"
         inkscape:connector-curvature="0" />
      <path
         style="fill:none;stroke:#000000;stroke-width:2.8125;stroke-linecap:butt;stroke-linejoin:miter;stroke-miterlimit:4;stroke-dasharray:none;stroke-opacity:1"
         d="m 695.84534,328.86975 -9.50707,-11.23563"
         id="path5912-3-9"
         inkscape:connector-curvature="0" />
      <path
         style="fill:none;stroke:#000000;stroke-width:2.8125;stroke-linecap:butt;stroke-linejoin:miter;stroke-miterlimit:4;stroke-dasharray:none;stroke-opacity:1"
         d="m 716.29995,328.86975 -9.50707,-11.23563"
         id="path5912-5-9"
         inkscape:connector-curvature="0" />
      <path
         style="fill:none;stroke:#000000;stroke-width:2.8125;stroke-linecap:butt;stroke-linejoin:miter;stroke-miterlimit:4;stroke-dasharray:none;stroke-opacity:1"
         d="M 726.52727,328.86975 717.0202,317.63412"
         id="path5912-0-3"
         inkscape:connector-curvature="0" />
      <path
         style="fill:none;stroke:#000000;stroke-width:2.8125;stroke-linecap:butt;stroke-linejoin:miter;stroke-miterlimit:4;stroke-dasharray:none;stroke-opacity:1"
         d="m 736.75458,328.86975 -9.50707,-11.23563"
         id="path5912-1-9"
         inkscape:connector-curvature="0" />
      <path
         style="fill:none;stroke:#000000;stroke-width:2.8125;stroke-linecap:butt;stroke-linejoin:miter;stroke-miterlimit:4;stroke-dasharray:none;stroke-opacity:1"
         d="m 706.07265,328.86975 -9.50707,-11.23563"
         id="path5912-4-4"
         inkscape:connector-curvature="0" />
      <path
         id="path6436"
         style="stroke:#000000;stroke-width:2.8125"
         d="m 1034.5928,373.57578 a 4.42521,4.42521 0 0 1 -4.4252,4.42521 4.42521,4.42521 0 0 1 -4.4252,-4.42521 4.42521,4.42521 0 0 1 4.4252,-4.42521 4.42521,4.42521 0 0 1 4.4252,4.42521 z" />
      <path
         sodipodi:nodetypes="csc"
         inkscape:connector-curvature="0"
         id="path1358-5"
         d="m 1033.7124,394.09518 c 9.9432,0 18.0038,-9.54542 18.0038,-21.32028 0,-11.77486 -9.0082,-15.16109 -18.0038,-21.32028"
         style="fill:none;stroke:#000000;stroke-width:2.19844;stroke-miterlimit:4;stroke-dasharray:none;stroke-opacity:1;marker-end:url(#marker1373-6)" />
      <path
         sodipodi:nodetypes="csc"
         inkscape:connector-curvature="0"
         id="path1358-5-6"
         d="m 1058.2968,393.11181 c 9.9432,0 18.0038,-9.54542 18.0038,-21.32028 0,-11.77486 -9.0082,-15.16109 -18.0038,-21.32028"
         style="fill:none;stroke:#000000;stroke-width:2.19844;stroke-miterlimit:4;stroke-dasharray:none;stroke-opacity:1;marker-end:url(#marker1373-6-5)" />
      <path
         d="m 1058.968,342.62544 v -2.8583 h 1.3866 q 0.037,1.20413 0.5717,1.78795 0.5351,0.59599 1.6055,0.59599 1.4474,0 2.019,-0.91222 0.5717,-0.91223 0.5717,-3.56376 v -16.26191 h -2.8218 v -1.30144 h 7.6019 v 1.30144 h -2.311 v 16.35922 q 0,3.00425 -1.2042,4.34218 -1.2041,1.33793 -3.8799,1.33793 -0.8636,0 -1.7515,-0.20677 -0.9001,-0.20677 -1.788,-0.62031 z"
         style="font-size:24.9098px;line-height:1.25;font-family:'DejaVu Serif';-inkscape-font-specification:'DejaVu Serif';letter-spacing:0px;word-spacing:0px;stroke-width:0.622746"
         id="path5970" />
      <path
         inkscape:connector-curvature="0"
         id="path7460"
         d="M 883.85831,419.68081 H 896.8667"
         style="fill:none;stroke:#000000;stroke-width:1.59375;stroke-linecap:butt;stroke-linejoin:miter;stroke-miterlimit:4;stroke-dasharray:none;stroke-opacity:1" />
      <path
         d="m 720.30916,461.95365 q 0,2.64615 -1.21025,4.55384 -1.21026,1.88718 -3.22052,2.89231 -1.98974,1.00513 -4.41025,1.00513 -2.81026,0 -5.37436,-2.03077 -0.0205,0.67692 -0.0205,2.85128 0,2.17436 0,4.28718 0,2.11282 -0.0205,2.64616 h -3.32307 v -31.87693 q 0,-0.67692 0.4923,-1.6 0.49231,-0.94359 1.45641,-1.80512 0.98462,-0.86154 2.35898,-1.39488 1.39487,-0.53333 3.17949,-0.53333 1.62051,0 3.44615,0.6359 1.82564,0.61538 3.07692,2.03077 1.25128,1.39487 1.25128,3.63077 0,1.41538 -0.45128,2.44102 -0.43077,1.00513 -1.1282,1.66154 -0.67693,0.6359 -1.78462,1.4359 2.68718,1.55897 4.18462,3.97949 1.49743,2.4 1.49743,5.18974 z m -4.3282,0 q -0.24616,-3.42564 -1.16923,-5.04616 -0.92308,-1.62051 -2.19487,-2.7282 -1.70257,0.59487 -2.4,0.59487 -1.80513,0 -1.80513,-1.4359 0,-0.88205 0.4923,-1.2923 0.51283,-0.43077 1.31283,-0.43077 0.57435,0 1.04615,0.0821 0.49231,0.0615 0.8,0.18461 0.30769,0.12308 0.51282,0.16411 1.06667,-0.51282 1.39487,-1.6 0.32821,-1.1077 0.32821,-2.99488 0,-1.21025 -0.43077,-2.29743 -0.43077,-1.08718 -1.39487,-1.7641 -0.96411,-0.67693 -2.50257,-0.67693 -2.03077,0 -2.97436,1.23077 -0.94359,1.21026 -0.94359,2.33846 l 0.041,19.65129 q 1.98974,1.41538 2.89231,1.9282 0.92307,0.51282 1.86666,0.51282 1.25128,0 2.42052,-0.59487 1.18974,-0.61538 1.94871,-2.03077 0.75898,-1.4359 0.75898,-3.79487 z"
         style="font-size:40px;line-height:1.25;font-family:Alfa-beta;-inkscape-font-specification:Alfa-beta;stroke-width:0.9375"
         id="path5973" />
      <path
         d="m 1043.7067,331.11875 q 0,2.64615 -1.2102,4.55385 -1.2103,1.88717 -3.2205,2.8923 -1.9898,1.00513 -4.4103,1.00513 -2.8102,0 -5.3743,-2.03077 -0.021,0.67692 -0.021,2.85128 0,2.17436 0,4.28718 0,2.11282 -0.021,2.64616 h -3.323 v -31.87693 q 0,-0.67692 0.4923,-1.6 0.4923,-0.94359 1.4564,-1.80512 0.9846,-0.86154 2.359,-1.39488 1.3948,-0.53333 3.1794,-0.53333 1.6206,0 3.4462,0.6359 1.8256,0.61538 3.0769,2.03077 1.2513,1.39487 1.2513,3.63077 0,1.41538 -0.4513,2.44102 -0.4308,1.00513 -1.1282,1.66154 -0.6769,0.6359 -1.7846,1.4359 2.6872,1.55897 4.1846,3.97949 1.4974,2.4 1.4974,5.18974 z m -4.3282,0 q -0.2461,-3.42564 -1.1692,-5.04615 -0.9231,-1.62052 -2.1949,-2.72821 -1.7025,0.59487 -2.4,0.59487 -1.8051,0 -1.8051,-1.4359 0,-0.88205 0.4923,-1.2923 0.5128,-0.43077 1.3128,-0.43077 0.5744,0 1.0462,0.0821 0.4923,0.0615 0.8,0.18461 0.3077,0.12308 0.5128,0.16411 1.0667,-0.51282 1.3949,-1.6 0.3282,-1.1077 0.3282,-2.99488 0,-1.21025 -0.4308,-2.29743 -0.4307,-1.08718 -1.3949,-1.7641 -0.9641,-0.67693 -2.5025,-0.67693 -2.0308,0 -2.9744,1.23077 -0.9436,1.21026 -0.9436,2.33846 l 0.041,19.65129 q 1.9897,1.41538 2.8923,1.9282 0.923,0.51282 1.8666,0.51282 1.2513,0 2.4205,-0.59487 1.1898,-0.61538 1.9488,-2.03077 0.7589,-1.4359 0.7589,-3.79487 z"
         style="font-size:40px;line-height:1.25;font-family:Alfa-beta;-inkscape-font-specification:Alfa-beta;stroke-width:0.9375"
         id="path5976" />
    </g>
  </g>
</svg>
