<?xml version="1.0" encoding="UTF-8" standalone="no"?>
<!-- Created with Inkscape (http://www.inkscape.org/) -->

<svg
   version="1.0"
   width="604.12512"
   height="312.37366"
   id="svg2"
   sodipodi:version="0.32"
   inkscape:version="1.1.2 (0a00cf5339, 2022-02-04)"
   sodipodi:docname="model_fig23.svg"
   xmlns:inkscape="http://www.inkscape.org/namespaces/inkscape"
   xmlns:sodipodi="http://sodipodi.sourceforge.net/DTD/sodipodi-0.dtd"
   xmlns="http://www.w3.org/2000/svg"
   xmlns:svg="http://www.w3.org/2000/svg"
   xmlns:rdf="http://www.w3.org/1999/02/22-rdf-syntax-ns#"
   xmlns:cc="http://creativecommons.org/ns#"
   xmlns:dc="http://purl.org/dc/elements/1.1/">
  <metadata
     id="metadata2729">
    <rdf:RDF>
      <cc:Work
         rdf:about="">
        <dc:format>image/svg+xml</dc:format>
        <dc:type
           rdf:resource="http://purl.org/dc/dcmitype/StillImage" />
        <dc:source>http://commons.mediawiki.org/wiki/Image:Zusatzzeichen_1048-10.svg</dc:source>
        <dc:creator>
          <cc:Agent>
            <dc:title>Purodha Blissenbach</dc:title>
          </cc:Agent>
        </dc:creator>
        <cc:license
           rdf:resource="http://web.resource.org/cc/PublicDomain" />
      </cc:Work>
      <cc:License
         rdf:about="http://web.resource.org/cc/PublicDomain">
        <cc:permits
           rdf:resource="http://web.resource.org/cc/Reproduction" />
        <cc:permits
           rdf:resource="http://web.resource.org/cc/Distribution" />
        <cc:permits
           rdf:resource="http://web.resource.org/cc/DerivativeWorks" />
      </cc:License>
    </rdf:RDF>
  </metadata>
  <sodipodi:namedview
     inkscape:window-height="1052"
     inkscape:window-width="2580"
     inkscape:pageshadow="2"
     inkscape:pageopacity="1"
     guidetolerance="10.0"
     gridtolerance="10.0"
     objecttolerance="10.0"
     borderopacity="1.0"
     bordercolor="#666666"
     pagecolor="white"
     id="base"
     inkscape:zoom="1.1136932"
     inkscape:cx="274.76149"
     inkscape:cy="175.0931"
     inkscape:window-x="1920"
     inkscape:window-y="0"
     inkscape:current-layer="svg2"
     inkscape:showpageshadow="false"
     showgrid="false"
     height="360px"
     width="800px"
     inkscape:window-maximized="1"
     fit-margin-top="0"
     fit-margin-left="0"
     fit-margin-right="0"
     fit-margin-bottom="0"
     inkscape:pagecheckerboard="0">
    <inkscape:grid
       id="GridFromPre046Settings"
       type="xygrid"
       originx="428.37295"
       originy="-118.71009"
       spacingx="1.0666667"
       spacingy="1.0666667"
       color="#0000ff"
       empcolor="#0000ff"
       opacity="0.2"
       empopacity="0.4"
       empspacing="20"
       visible="true"
       enabled="true"
       snapvisiblegridlinesonly="true" />
  </sodipodi:namedview>
  <defs
     id="defs4">
    <marker
       inkscape:stockid="Arrow1Mend"
       orient="auto"
       refY="0"
       refX="0"
       id="marker1255"
       style="overflow:visible"
       inkscape:isstock="true">
      <path
         id="path1253"
         d="M 0,0 5,-5 -12.5,0 5,5 Z"
         style="fill:#000000;fill-opacity:1;fill-rule:evenodd;stroke:#000000;stroke-width:1pt;stroke-opacity:1"
         transform="matrix(-0.4,0,0,-0.4,-4,0)"
         inkscape:connector-curvature="0" />
    </marker>
    <marker
       inkscape:stockid="Arrow1Mend"
       orient="auto"
       refY="0"
       refX="0"
       id="Arrow1Mend"
       style="overflow:visible"
       inkscape:isstock="true">
      <path
         id="path974"
         d="M 0,0 5,-5 -12.5,0 5,5 Z"
         style="fill:#000000;fill-opacity:1;fill-rule:evenodd;stroke:#000000;stroke-width:1pt;stroke-opacity:1"
         transform="matrix(-0.4,0,0,-0.4,-4,0)"
         inkscape:connector-curvature="0" />
    </marker>
    <marker
       inkscape:stockid="Arrow1Mend"
       orient="auto"
       refY="0"
       refX="0"
       id="marker3108"
       style="overflow:visible"
       inkscape:isstock="true">
      <path
         id="path3106"
         d="M 0,0 5,-5 -12.5,0 5,5 Z"
         style="fill:#000000;fill-opacity:1;fill-rule:evenodd;stroke:#000000;stroke-width:1pt;stroke-opacity:1"
         transform="matrix(-0.4,0,0,-0.4,-4,0)"
         inkscape:connector-curvature="0" />
    </marker>
    <marker
       inkscape:isstock="true"
       style="overflow:visible"
       id="Arrow1Mstart"
       refX="0"
       refY="0"
       orient="auto"
       inkscape:stockid="Arrow1Mstart">
      <path
         inkscape:connector-curvature="0"
         transform="matrix(0.4,0,0,0.4,4,0)"
         style="fill:#000000;fill-opacity:1;fill-rule:evenodd;stroke:#000000;stroke-width:1pt;stroke-opacity:1"
         d="M 0,0 5,-5 -12.5,0 5,5 Z"
         id="path2255" />
    </marker>
    <marker
       inkscape:isstock="true"
       style="overflow:visible"
       id="StopL"
       refX="0"
       refY="0"
       orient="auto"
       inkscape:stockid="StopL">
      <path
         inkscape:connector-curvature="0"
         transform="scale(0.8)"
         style="fill:none;fill-opacity:0.75;fill-rule:evenodd;stroke:#000000;stroke-width:1pt;stroke-opacity:1"
         d="M 0,5.65 V -5.65"
         id="path2419" />
    </marker>
    <marker
       inkscape:isstock="true"
       style="overflow:visible"
       id="StopM"
       refX="0"
       refY="0"
       orient="auto"
       inkscape:stockid="StopM">
      <path
         inkscape:connector-curvature="0"
         transform="scale(0.4)"
         style="fill:none;fill-opacity:0.75;fill-rule:evenodd;stroke:#000000;stroke-width:1pt;stroke-opacity:1"
         d="M 0,5.65 V -5.65"
         id="path2422" />
    </marker>
    <marker
       inkscape:isstock="true"
       style="overflow:visible"
       id="marker1839"
       refX="0"
       refY="0"
       orient="auto"
       inkscape:stockid="DotM">
      <path
         inkscape:connector-curvature="0"
         transform="matrix(0.4,0,0,0.4,2.96,0.4)"
         style="fill:#000000;fill-opacity:1;fill-rule:evenodd;stroke:#000000;stroke-width:1pt;stroke-opacity:1"
         d="m -2.5,-1 c 0,2.76 -2.24,5 -5,5 -2.76,0 -5,-2.24 -5,-5 0,-2.76 2.24,-5 5,-5 2.76,0 5,2.24 5,5 z"
         id="path1837" />
    </marker>
    <marker
       inkscape:isstock="true"
       style="overflow:visible"
       id="Arrow1Send"
       refX="0"
       refY="0"
       orient="auto"
       inkscape:stockid="Arrow1Send">
      <path
         inkscape:connector-curvature="0"
         transform="matrix(-0.2,0,0,-0.2,-1.2,0)"
         style="fill:#000000;fill-opacity:1;fill-rule:evenodd;stroke:#000000;stroke-width:1pt;stroke-opacity:1"
         d="M 0,0 5,-5 -12.5,0 5,5 Z"
         id="path4778" />
    </marker>
    <marker
       inkscape:isstock="true"
       style="overflow:visible"
       id="DotM"
       refX="0"
       refY="0"
       orient="auto"
       inkscape:stockid="DotM">
      <path
         inkscape:connector-curvature="0"
         transform="matrix(0.4,0,0,0.4,2.96,0.4)"
         style="fill:#000000;fill-opacity:1;fill-rule:evenodd;stroke:#000000;stroke-width:1pt;stroke-opacity:1"
         d="m -2.5,-1 c 0,2.76 -2.24,5 -5,5 -2.76,0 -5,-2.24 -5,-5 0,-2.76 2.24,-5 5,-5 2.76,0 5,2.24 5,5 z"
         id="path4827" />
    </marker>
    <marker
       inkscape:stockid="Arrow1Mend"
       orient="auto"
       refY="0"
       refX="0"
       id="marker4683"
       style="overflow:visible"
       inkscape:isstock="true">
      <path
         id="path4685"
         d="M 0,0 5,-5 -12.5,0 5,5 Z"
         style="fill:#000000;fill-opacity:1;fill-rule:evenodd;stroke:#000000;stroke-width:1pt;stroke-opacity:1"
         transform="matrix(-0.4,0,0,-0.4,-4,0)"
         inkscape:connector-curvature="0" />
    </marker>
    <marker
       inkscape:isstock="true"
       style="overflow:visible"
       id="Arrow1Mend-2"
       refX="0"
       refY="0"
       orient="auto"
       inkscape:stockid="Arrow1Mend">
      <path
         inkscape:connector-curvature="0"
         transform="matrix(-0.4,0,0,-0.4,-4,0)"
         style="fill:#000000;fill-opacity:1;fill-rule:evenodd;stroke:#000000;stroke-width:1pt;stroke-opacity:1"
         d="M 0,0 5,-5 -12.5,0 5,5 Z"
         id="path4285" />
    </marker>
    <marker
       inkscape:isstock="true"
       style="overflow:visible"
       id="marker4692-1"
       refX="0"
       refY="0"
       orient="auto"
       inkscape:stockid="Arrow1Mend">
      <path
         inkscape:connector-curvature="0"
         transform="matrix(-0.4,0,0,-0.4,-4,0)"
         style="fill:#000000;fill-opacity:1;fill-rule:evenodd;stroke:#000000;stroke-width:1pt;stroke-opacity:1"
         d="M 0,0 5,-5 -12.5,0 5,5 Z"
         id="path4694-8" />
    </marker>
    <marker
       inkscape:isstock="true"
       style="overflow:visible"
       id="DotM-3"
       refX="0"
       refY="0"
       orient="auto"
       inkscape:stockid="DotM">
      <path
         transform="matrix(0.4,0,0,0.4,2.96,0.4)"
         style="fill:#000000;fill-opacity:1;fill-rule:evenodd;stroke:#000000;stroke-width:1pt;stroke-opacity:1"
         d="m -2.5,-1 c 0,2.76 -2.24,5 -5,5 -2.76,0 -5,-2.24 -5,-5 0,-2.76 2.24,-5 5,-5 2.76,0 5,2.24 5,5 z"
         id="path4827-6"
         inkscape:connector-curvature="0" />
    </marker>
    <marker
       inkscape:isstock="true"
       style="overflow:visible"
       id="StopM-2"
       refX="0"
       refY="0"
       orient="auto"
       inkscape:stockid="StopM">
      <path
         transform="scale(0.4)"
         style="fill:none;fill-opacity:0.75;fill-rule:evenodd;stroke:#000000;stroke-width:1pt;stroke-opacity:1"
         d="M 0,5.65 V -5.65"
         id="path2422-9"
         inkscape:connector-curvature="0" />
    </marker>
    <marker
       inkscape:stockid="Arrow1Mend"
       orient="auto"
       refY="0"
       refX="0"
       id="marker3108-1"
       style="overflow:visible"
       inkscape:isstock="true">
      <path
         id="path3106-2"
         d="M 0,0 5,-5 -12.5,0 5,5 Z"
         style="fill:#000000;fill-opacity:1;fill-rule:evenodd;stroke:#000000;stroke-width:1pt;stroke-opacity:1"
         transform="matrix(-0.4,0,0,-0.4,-4,0)"
         inkscape:connector-curvature="0" />
    </marker>
    <marker
       inkscape:stockid="Arrow1Mend"
       orient="auto"
       refY="0"
       refX="0"
       id="marker3108-3"
       style="overflow:visible"
       inkscape:isstock="true">
      <path
         id="path3106-6"
         d="M 0,0 5,-5 -12.5,0 5,5 Z"
         style="fill:#000000;fill-opacity:1;fill-rule:evenodd;stroke:#000000;stroke-width:1pt;stroke-opacity:1"
         transform="matrix(-0.4,0,0,-0.4,-4,0)"
         inkscape:connector-curvature="0" />
    </marker>
    <marker
       inkscape:isstock="true"
       style="overflow:visible"
       id="Arrow1Mstart-0"
       refX="0"
       refY="0"
       orient="auto"
       inkscape:stockid="Arrow1Mstart">
      <path
         inkscape:connector-curvature="0"
         transform="matrix(0.4,0,0,0.4,4,0)"
         style="fill:#000000;fill-opacity:1;fill-rule:evenodd;stroke:#000000;stroke-width:1pt;stroke-opacity:1"
         d="M 0,0 5,-5 -12.5,0 5,5 Z"
         id="path2255-6" />
    </marker>
    <marker
       inkscape:isstock="true"
       style="overflow:visible"
       id="StopL-2"
       refX="0"
       refY="0"
       orient="auto"
       inkscape:stockid="StopL">
      <path
         inkscape:connector-curvature="0"
         transform="scale(0.8)"
         style="fill:none;fill-opacity:0.75;fill-rule:evenodd;stroke:#000000;stroke-width:1pt;stroke-opacity:1"
         d="M 0,5.65 V -5.65"
         id="path2419-6" />
    </marker>
    <marker
       inkscape:isstock="true"
       style="overflow:visible"
       id="StopM-1"
       refX="0"
       refY="0"
       orient="auto"
       inkscape:stockid="StopM">
      <path
         inkscape:connector-curvature="0"
         transform="scale(0.4)"
         style="fill:none;fill-opacity:0.75;fill-rule:evenodd;stroke:#000000;stroke-width:1pt;stroke-opacity:1"
         d="M 0,5.65 V -5.65"
         id="path2422-8" />
    </marker>
    <marker
       inkscape:isstock="true"
       style="overflow:visible"
       id="marker1839-7"
       refX="0"
       refY="0"
       orient="auto"
       inkscape:stockid="DotM">
      <path
         inkscape:connector-curvature="0"
         transform="matrix(0.4,0,0,0.4,2.96,0.4)"
         style="fill:#000000;fill-opacity:1;fill-rule:evenodd;stroke:#000000;stroke-width:1pt;stroke-opacity:1"
         d="m -2.5,-1 c 0,2.76 -2.24,5 -5,5 -2.76,0 -5,-2.24 -5,-5 0,-2.76 2.24,-5 5,-5 2.76,0 5,2.24 5,5 z"
         id="path1837-9" />
    </marker>
    <marker
       inkscape:isstock="true"
       style="overflow:visible"
       id="Arrow1Send-2"
       refX="0"
       refY="0"
       orient="auto"
       inkscape:stockid="Arrow1Send">
      <path
         inkscape:connector-curvature="0"
         transform="matrix(-0.2,0,0,-0.2,-1.2,0)"
         style="fill:#000000;fill-opacity:1;fill-rule:evenodd;stroke:#000000;stroke-width:1pt;stroke-opacity:1"
         d="M 0,0 5,-5 -12.5,0 5,5 Z"
         id="path4778-0" />
    </marker>
    <marker
       inkscape:isstock="true"
       style="overflow:visible"
       id="DotM-2"
       refX="0"
       refY="0"
       orient="auto"
       inkscape:stockid="DotM">
      <path
         inkscape:connector-curvature="0"
         transform="matrix(0.4,0,0,0.4,2.96,0.4)"
         style="fill:#000000;fill-opacity:1;fill-rule:evenodd;stroke:#000000;stroke-width:1pt;stroke-opacity:1"
         d="m -2.5,-1 c 0,2.76 -2.24,5 -5,5 -2.76,0 -5,-2.24 -5,-5 0,-2.76 2.24,-5 5,-5 2.76,0 5,2.24 5,5 z"
         id="path4827-3" />
    </marker>
    <marker
       inkscape:stockid="Arrow1Mend"
       orient="auto"
       refY="0"
       refX="0"
       id="marker4683-7"
       style="overflow:visible"
       inkscape:isstock="true">
      <path
         id="path4685-5"
         d="M 0,0 5,-5 -12.5,0 5,5 Z"
         style="fill:#000000;fill-opacity:1;fill-rule:evenodd;stroke:#000000;stroke-width:1pt;stroke-opacity:1"
         transform="matrix(-0.4,0,0,-0.4,-4,0)"
         inkscape:connector-curvature="0" />
    </marker>
    <marker
       inkscape:isstock="true"
       style="overflow:visible"
       id="Arrow1Mend-9"
       refX="0"
       refY="0"
       orient="auto"
       inkscape:stockid="Arrow1Mend">
      <path
         inkscape:connector-curvature="0"
         transform="matrix(-0.4,0,0,-0.4,-4,0)"
         style="fill:#000000;fill-opacity:1;fill-rule:evenodd;stroke:#000000;stroke-width:1pt;stroke-opacity:1"
         d="M 0,0 5,-5 -12.5,0 5,5 Z"
         id="path4285-2" />
    </marker>
    <marker
       inkscape:isstock="true"
       style="overflow:visible"
       id="marker4692-1-2"
       refX="0"
       refY="0"
       orient="auto"
       inkscape:stockid="Arrow1Mend">
      <path
         inkscape:connector-curvature="0"
         transform="matrix(-0.4,0,0,-0.4,-4,0)"
         style="fill:#000000;fill-opacity:1;fill-rule:evenodd;stroke:#000000;stroke-width:1pt;stroke-opacity:1"
         d="M 0,0 5,-5 -12.5,0 5,5 Z"
         id="path4694-8-8" />
    </marker>
    <marker
       inkscape:isstock="true"
       style="overflow:visible"
       id="DotM-3-9"
       refX="0"
       refY="0"
       orient="auto"
       inkscape:stockid="DotM">
      <path
         transform="matrix(0.4,0,0,0.4,2.96,0.4)"
         style="fill:#000000;fill-opacity:1;fill-rule:evenodd;stroke:#000000;stroke-width:1pt;stroke-opacity:1"
         d="m -2.5,-1 c 0,2.76 -2.24,5 -5,5 -2.76,0 -5,-2.24 -5,-5 0,-2.76 2.24,-5 5,-5 2.76,0 5,2.24 5,5 z"
         id="path4827-6-7"
         inkscape:connector-curvature="0" />
    </marker>
    <marker
       inkscape:isstock="true"
       style="overflow:visible"
       id="StopM-2-3"
       refX="0"
       refY="0"
       orient="auto"
       inkscape:stockid="StopM">
      <path
         transform="scale(0.4)"
         style="fill:none;fill-opacity:0.75;fill-rule:evenodd;stroke:#000000;stroke-width:1pt;stroke-opacity:1"
         d="M 0,5.65 V -5.65"
         id="path2422-9-6"
         inkscape:connector-curvature="0" />
    </marker>
    <marker
       inkscape:stockid="Arrow1Mend"
       orient="auto"
       refY="0"
       refX="0"
       id="marker3108-1-1"
       style="overflow:visible"
       inkscape:isstock="true">
      <path
         id="path3106-2-2"
         d="M 0,0 5,-5 -12.5,0 5,5 Z"
         style="fill:#000000;fill-opacity:1;fill-rule:evenodd;stroke:#000000;stroke-width:1pt;stroke-opacity:1"
         transform="matrix(-0.4,0,0,-0.4,-4,0)"
         inkscape:connector-curvature="0" />
    </marker>
    <marker
       inkscape:stockid="Arrow1Mend"
       orient="auto"
       refY="0"
       refX="0"
       id="marker6265"
       style="overflow:visible"
       inkscape:isstock="true">
      <path
         id="path4772"
         d="M 0,0 5,-5 -12.5,0 5,5 Z"
         style="fill:#000000;fill-opacity:1;fill-rule:evenodd;stroke:#000000;stroke-width:1pt;stroke-opacity:1"
         transform="matrix(-0.4,0,0,-0.4,-4,0)"
         inkscape:connector-curvature="0" />
    </marker>
    <marker
       inkscape:stockid="Arrow1Send"
       orient="auto"
       refY="0"
       refX="0"
       id="Arrow1Send-7"
       style="overflow:visible"
       inkscape:isstock="true">
      <path
         id="path4778-5"
         d="M 0,0 5,-5 -12.5,0 5,5 Z"
         style="fill:#000000;fill-opacity:1;fill-rule:evenodd;stroke:#000000;stroke-width:1pt;stroke-opacity:1"
         transform="matrix(-0.2,0,0,-0.2,-1.2,0)"
         inkscape:connector-curvature="0" />
    </marker>
    <marker
       inkscape:stockid="DotM"
       orient="auto"
       refY="0"
       refX="0"
       id="DotM-35"
       style="overflow:visible"
       inkscape:isstock="true">
      <path
         id="path4827-62"
         d="m -2.5,-1 c 0,2.76 -2.24,5 -5,5 -2.76,0 -5,-2.24 -5,-5 0,-2.76 2.24,-5 5,-5 2.76,0 5,2.24 5,5 z"
         style="fill:#000000;fill-opacity:1;fill-rule:evenodd;stroke:#000000;stroke-width:1pt;stroke-opacity:1"
         transform="matrix(0.4,0,0,0.4,2.96,0.4)"
         inkscape:connector-curvature="0" />
    </marker>
    <marker
       inkscape:isstock="true"
       style="overflow:visible"
       id="marker4683-9"
       refX="0"
       refY="0"
       orient="auto"
       inkscape:stockid="Arrow1Mend">
      <path
         inkscape:connector-curvature="0"
         transform="matrix(-0.4,0,0,-0.4,-4,0)"
         style="fill:#000000;fill-opacity:1;fill-rule:evenodd;stroke:#000000;stroke-width:1pt;stroke-opacity:1"
         d="M 0,0 5,-5 -12.5,0 5,5 Z"
         id="path4685-1" />
    </marker>
    <marker
       inkscape:stockid="Arrow1Mend"
       orient="auto"
       refY="0"
       refX="0"
       id="Arrow1Mend-2-9"
       style="overflow:visible"
       inkscape:isstock="true">
      <path
         id="path4285-7"
         d="M 0,0 5,-5 -12.5,0 5,5 Z"
         style="fill:#000000;fill-opacity:1;fill-rule:evenodd;stroke:#000000;stroke-width:1pt;stroke-opacity:1"
         transform="matrix(-0.4,0,0,-0.4,-4,0)"
         inkscape:connector-curvature="0" />
    </marker>
    <marker
       inkscape:stockid="Arrow1Mend"
       orient="auto"
       refY="0"
       refX="0"
       id="marker4692-1-0"
       style="overflow:visible"
       inkscape:isstock="true">
      <path
         id="path4694-8-9"
         d="M 0,0 5,-5 -12.5,0 5,5 Z"
         style="fill:#000000;fill-opacity:1;fill-rule:evenodd;stroke:#000000;stroke-width:1pt;stroke-opacity:1"
         transform="matrix(-0.4,0,0,-0.4,-4,0)"
         inkscape:connector-curvature="0" />
    </marker>
    <marker
       inkscape:stockid="DotM"
       orient="auto"
       refY="0"
       refX="0"
       id="DotM-3-3"
       style="overflow:visible"
       inkscape:isstock="true">
      <path
         inkscape:connector-curvature="0"
         id="path4827-6-6"
         d="m -2.5,-1 c 0,2.76 -2.24,5 -5,5 -2.76,0 -5,-2.24 -5,-5 0,-2.76 2.24,-5 5,-5 2.76,0 5,2.24 5,5 z"
         style="fill:#000000;fill-opacity:1;fill-rule:evenodd;stroke:#000000;stroke-width:1pt;stroke-opacity:1"
         transform="matrix(0.4,0,0,0.4,2.96,0.4)" />
    </marker>
  </defs>
  <g
     id="g1541"
     transform="translate(3.8940381,1.5688568)">
    <path
       id="rect1194"
       style="fill:#ffffff;stroke:#ffffff;stroke-width:0.693333;stroke-miterlimit:10"
       d="M -3.5473716,-1.2221903 H 599.88439 V 310.45814 H -3.5473716 Z" />
    <path
       inkscape:connector-curvature="0"
       id="path963"
       d="m 453.63801,158.89314 h 93.4289"
       style="fill:none;stroke:#000000;stroke-width:3.69887;stroke-linecap:butt;stroke-linejoin:miter;stroke-miterlimit:4;stroke-dasharray:none;stroke-opacity:1;marker-end:url(#marker1255)" />
    <path
       d="m 556.17667,200.6467 q -0.51462,0.27446 -1.23509,0.48031 -0.68617,0.24016 -1.81834,0.24016 -1.16649,0 -2.09281,-0.72047 -0.96063,-0.72048 -0.96063,-1.88696 0,-1.13217 0.61755,-1.71542 0.58324,-0.58324 1.40664,-0.58324 1.37233,0 1.64679,1.2351 -0.58324,0.30878 -0.58324,1.06356 0,0.96063 0.92633,0.96063 1.40664,0 1.92126,-1.88695 0.34309,-1.2351 0.54894,-3.39653 0.24015,-2.16142 0.37739,-2.98482 l 1.88695,-11.76774 h -2.53881 l 0.20585,-1.16649 2.60743,-0.68616 0.30877,-1.57818 q 1.20079,-6.31273 5.83242,-6.31273 1.54387,0 2.60743,0.8234 1.09786,0.78909 1.09786,1.98988 0,1.20079 -0.65186,1.88695 -0.65185,0.68617 -1.47525,0.68617 -1.20079,0 -1.54388,-1.2351 0.8234,-0.61755 0.8234,-1.2351 0,-1.30371 -1.50956,-1.30371 -1.57818,0 -2.0585,1.71541 -0.34308,1.26941 -0.4117,2.81328 -0.0686,1.54388 -0.10292,1.92127 h 3.29359 l -0.24016,1.68111 h -3.3279 l -1.92127,12.14513 q -0.51462,3.36222 -0.75478,4.01407 -0.20585,0.65186 -0.51462,1.54388 -0.30878,0.92632 -0.61755,1.30371 -0.27447,0.4117 -0.75479,1.02925 -0.48031,0.65186 -0.99494,0.92633 z"
       style="font-style:italic;font-size:34.3083px;line-height:1.25;font-family:Caladea;-inkscape-font-specification:'Caladea Italic';text-align:center;letter-spacing:0px;word-spacing:0px;text-anchor:middle;stroke-width:0.536067"
       id="path1430" />
    <path
       d="m 567.60133,187.23215 q 0,-5.21486 2.50451,-9.74356 2.5045,-4.52869 7.30767,-7.99383 l 0.89201,0.96063 q -3.80822,3.43083 -5.83241,8.02814 -2.02419,4.56301 -2.02419,9.9151 0,5.3521 3.2936,9.53771 l -0.96063,0.89202 q -0.20585,-0.17155 -0.58325,-0.48032 -0.34308,-0.27447 -1.23509,-1.37233 -0.89202,-1.06356 -1.57819,-2.29866 -0.65185,-1.2351 -1.23509,-3.22498 -0.54894,-2.02419 -0.54894,-4.21992 z"
       style="font-style:italic;font-size:34.3083px;line-height:1.25;font-family:Caladea;-inkscape-font-specification:'Caladea Italic';text-align:center;letter-spacing:0px;word-spacing:0px;text-anchor:middle;stroke-width:0.536067"
       id="path1432" />
    <path
       d="m 582.18235,190.76591 q 0,1.20079 1.20079,1.20079 1.20079,0 3.77391,-1.74973 l 0.8234,1.16649 q -1.06355,0.8577 -1.6811,1.30371 -0.61755,0.4117 -1.85265,0.92632 -1.2351,0.48032 -2.53882,0.48032 -1.30371,0 -2.02418,-0.72047 -0.68617,-0.75479 -0.68617,-1.78403 0,-1.02925 1.71541,-11.90498 h -2.47019 l 0.20585,-1.13218 q 2.02419,-0.54893 2.9162,-1.40664 0.89202,-0.89201 1.78403,-2.64174 h 1.37234 l -0.54894,3.32791 h 5.48933 l -0.37739,1.85265 h -5.42071 l -0.4117,2.5045 q -1.26941,7.71937 -1.26941,8.57708 z"
       style="font-style:italic;font-size:34.3083px;line-height:1.25;font-family:Caladea;-inkscape-font-specification:'Caladea Italic';text-align:center;letter-spacing:0px;word-spacing:0px;text-anchor:middle;stroke-width:0.536067"
       id="path1434" />
    <path
       d="m 599.06201,181.09097 q 0,5.14624 -2.57312,9.77786 -2.53882,4.59731 -7.23905,7.95953 l -0.89202,-0.96064 q 3.77391,-3.36221 5.7981,-7.95952 2.0585,-4.63162 2.0585,-9.94941 0,-5.31779 -3.2936,-9.57201 l 0.96064,-0.89202 q 0.20585,0.17154 0.54893,0.48032 0.37739,0.27446 1.26941,1.37233 0.89201,1.06356 1.54387,2.29865 0.68617,1.2351 1.2351,3.25929 0.58324,1.98988 0.58324,4.18562 z"
       style="font-style:italic;font-size:34.3083px;line-height:1.25;font-family:Caladea;-inkscape-font-specification:'Caladea Italic';text-align:center;letter-spacing:0px;word-spacing:0px;text-anchor:middle;stroke-width:0.536067"
       id="path1436" />
    <path
       d="m 124.41433,269.93396 -1.20079,6.34704 q -0.10293,0.44601 -0.30878,1.06355 -0.17154,0.61755 -0.44601,1.50957 h -2.98482 q 0.54893,-1.74972 0.78909,-2.60743 0.54893,-1.78403 0.68617,-2.60743 l 4.01407,-22.47194 q 0.30877,-1.81834 1.68111,-3.08775 0.68616,-0.65185 2.23004,-1.47525 1.54387,-0.8234 3.39652,-0.8234 2.77897,0 4.66593,1.78403 0.446,0.4117 0.78909,1.09787 0.48031,0.92632 0.48031,1.88695 0,0.68617 -0.24016,1.40664 -0.51462,1.57818 -1.54387,2.71036 -0.61755,0.68616 -2.02419,1.71541 1.50957,0.78909 2.29866,1.98988 0.8234,1.2008 1.06356,3.25929 0.0686,0.54894 0.0686,0.96064 0,1.98988 -0.8234,3.91114 -0.96063,2.29866 -2.64174,3.63668 -1.09786,0.89202 -2.33296,1.26941 -1.20079,0.4117 -2.60743,0.4117 -0.58324,0 -0.89202,-0.0343 -0.37739,-0.10292 -0.51462,-0.10292 -1.81834,-0.30878 -3.60237,-1.74973 z m 3.29359,-19.21265 -3.08774,17.29139 q 0.37739,0.44601 0.8234,0.92632 0.446,0.44601 1.13217,0.72048 0.68617,0.27446 1.20079,0.4117 0.54893,0.10292 1.20079,0.10292 1.02925,0 1.98988,-0.48032 0.96063,-0.48031 1.6468,-1.37233 0.58324,-0.72047 0.89202,-1.6468 0.72047,-1.88695 0.72047,-4.04838 0,-2.74466 -1.20079,-4.46007 -0.24016,-0.3774 -0.54893,-0.54894 -0.27447,-0.20585 -0.75479,-0.20585 -0.27446,0.0343 -0.4117,0.0343 -0.37739,0.0686 -0.65185,0.10293 -0.24016,0 -0.58324,0 -0.54894,0 -0.8234,-0.17155 -0.48032,-0.27446 -0.48032,-0.65185 0,-0.30878 0.20585,-0.54894 0.20585,-0.27446 0.54893,-0.51462 0.34309,-0.24016 1.02925,-0.24016 0.4117,0 0.92633,0.10293 0.54893,0.0686 0.72047,0.10292 0.37739,0.0343 0.75478,-0.27447 0.4117,-0.446 0.58324,-0.61754 0.51463,-0.54894 0.92633,-1.71542 0.44601,-1.20079 0.44601,-2.43589 0,-0.96063 -0.24016,-1.61249 -0.20585,-0.65186 -0.8234,-1.20079 -0.92633,-0.8234 -2.02419,-0.8234 -0.27447,0 -0.58324,0.0686 -0.27447,0.0686 -0.51463,0.13723 -1.02925,0.37739 -1.92126,1.40664 -0.89202,0.99494 -1.09787,2.16142 z"
       style="font-style:italic;font-size:34.3083px;line-height:1.25;font-family:Atene;-inkscape-font-specification:'Atene Italic';text-align:center;letter-spacing:0px;word-spacing:0px;text-anchor:middle;stroke-width:0.536067"
       id="path1427" />
    <path
       d="m 350.82363,171.03482 h -1.85265 l -4.117,-17.56585 -2.19573,15.40443 q 1.13218,0.65186 3.08775,0.89201 l -0.13723,1.26941 h -8.234 l 0.17155,-1.26941 q 1.81834,-0.20585 2.9162,-0.89201 l 2.95052,-18.56079 q -1.13218,-0.68617 -2.91621,-0.89202 l 0.17154,-1.26941 h 5.93534 l 4.35715,18.90388 10.36111,-18.90388 h 5.52363 l -0.17154,1.26941 q -1.74972,0.20585 -2.9162,0.89202 l -2.95052,18.56079 q 1.13218,0.65186 3.08775,0.89201 l -0.13723,1.26941 h -9.05739 l 0.17154,-1.26941 q 1.81834,-0.24015 2.9162,-0.89201 l 2.67605,-15.40443 z"
       style="font-style:italic;font-size:34.3083px;line-height:1.25;font-family:Caladea;-inkscape-font-specification:'Caladea Italic';text-align:center;letter-spacing:0px;word-spacing:0px;text-anchor:middle;stroke-width:0.536067"
       id="path1420" />
    <path
       d="m 366.39959,164.61917 0.27447,-1.81834 h 14.75256 l -0.27446,1.81834 z m 0.78909,-4.9404 0.27447,-1.78403 h 14.75257 l -0.27447,1.78403 z"
       style="font-style:italic;font-size:34.3083px;line-height:1.25;font-family:Caladea;-inkscape-font-specification:'Caladea Italic';text-align:center;letter-spacing:0px;word-spacing:0px;text-anchor:middle;stroke-width:0.536067"
       id="path1422" />
    <path
       d="m 392.57682,151.41047 h -4.59731 v -1.47525 q 3.46513,-0.30878 6.48426,-1.92127 l 1.13218,0.51463 v 20.31051 q 1.13217,0.61755 4.28854,1.02925 l -0.10293,1.16648 h -11.93929 l 0.0686,-1.16648 q 3.05344,-0.34308 4.66593,-1.02925 z"
       id="path1424"
       style="font-size:12.8656px;line-height:1.25;font-family:Caladea;-inkscape-font-specification:Caladea;text-align:center;letter-spacing:0px;word-spacing:0px;text-anchor:middle;stroke-width:0.536067" />
    <path
       id="rect2408"
       style="fill:none;stroke:#0000ff;stroke-width:6.9;stroke-linecap:round;stroke-linejoin:bevel"
       d="M 289.84213,93.596359 H 451.46654 V 225.58963 H 289.84213 Z" />
    <path
       inkscape:connector-curvature="0"
       id="path818-3"
       d="M 36.338916,254.1675 V 59.638145"
       style="fill:none;stroke:#000000;stroke-width:7.827;stroke-linecap:round;stroke-linejoin:miter;stroke-miterlimit:4;stroke-dasharray:none;stroke-opacity:1" />
    <path
       style="fill:none;stroke:#000000;stroke-width:3.2164;stroke-linecap:butt;stroke-linejoin:miter;stroke-miterlimit:4;stroke-dasharray:none;stroke-opacity:1"
       d="M 36.33892,208.35856 1.11163,242.05423"
       id="path832-67"
       inkscape:connector-curvature="0" />
    <path
       style="fill:none;stroke:#000000;stroke-width:3.2164;stroke-linecap:butt;stroke-linejoin:miter;stroke-miterlimit:4;stroke-dasharray:none;stroke-opacity:1"
       d="M 36.33892,171.17845 1.11163,204.87412"
       id="path832-3-5"
       inkscape:connector-curvature="0" />
    <path
       style="fill:none;stroke:#000000;stroke-width:3.2164;stroke-linecap:butt;stroke-linejoin:miter;stroke-miterlimit:4;stroke-dasharray:none;stroke-opacity:1"
       d="M 36.33892,245.53867 1.11163,279.23434"
       id="path832-6-3"
       inkscape:connector-curvature="0" />
    <path
       style="fill:none;stroke:#000000;stroke-width:3.2164;stroke-linecap:butt;stroke-linejoin:miter;stroke-miterlimit:4;stroke-dasharray:none;stroke-opacity:1"
       d="M 36.33892,133.99834 1.11163,167.69401"
       id="path832-7-5"
       inkscape:connector-curvature="0" />
    <path
       style="fill:none;stroke:#000000;stroke-width:3.2164;stroke-linecap:butt;stroke-linejoin:miter;stroke-miterlimit:4;stroke-dasharray:none;stroke-opacity:1"
       d="M 36.33892,96.81824 1.11163,130.51391"
       id="path832-5-6"
       inkscape:connector-curvature="0" />
    <path
       style="fill:none;stroke:#000000;stroke-width:3.2164;stroke-linecap:butt;stroke-linejoin:miter;stroke-miterlimit:4;stroke-dasharray:none;stroke-opacity:1"
       d="M 36.33892,59.63813 1.11163,93.3338"
       id="path832-35-2"
       inkscape:connector-curvature="0" />
    <path
       inkscape:connector-curvature="0"
       id="path2964"
       d="m 452.62369,50.315396 h 80.20192"
       style="fill:none;stroke:#000000;stroke-width:2.3;stroke-linecap:butt;stroke-linejoin:miter;stroke-miterlimit:4;stroke-dasharray:none;stroke-opacity:1;marker-start:url(#StopM);marker-end:url(#marker3108)" />
    <path
       d="m 137.36046,98.506538 v -1.375231 h 2.46503 V 80.524745 h -2.46503 v -1.388204 h 7.56377 v 1.388204 h -2.46504 v 7.330241 l 8.3422,-7.330241 h -2.10176 v -1.388204 h 6.43504 v 1.388204 h -2.17961 l -8.31626,7.304293 9.30227,9.302269 h 2.20556 v 1.375231 h -4.50193 l -9.18551,-9.198478 v 7.823247 h 2.46504 v 1.375231 z"
       style="font-size:26.5705px;line-height:1.25;font-family:'DejaVu Serif';-inkscape-font-specification:'DejaVu Serif';letter-spacing:0px;word-spacing:0px;stroke-width:0.664262"
       id="path1412" />
    <path
       d="m 158.55977,86.492729 h 16.63251 v 2.07582 h -16.63251 z m 0,5.293341 h 16.63251 v 2.075821 h -16.63251 z"
       style="font-size:26.5705px;line-height:1.25;font-family:'DejaVu Serif';-inkscape-font-specification:'DejaVu Serif';letter-spacing:0px;word-spacing:0px;stroke-width:0.664262"
       id="path1414" />
    <path
       d="m 181.78301,98.506538 v -1.375231 h 3.37321 V 81.017753 l -3.90514,2.529906 v -1.699578 l 4.72249,-3.061835 h 1.7904 v 18.345061 h 3.37321 v 1.375231 z"
       style="font-size:26.5705px;line-height:1.25;font-family:'DejaVu Serif';-inkscape-font-specification:'DejaVu Serif';letter-spacing:0px;word-spacing:0px;stroke-width:0.664262"
       id="path1416" />
    <path
       inkscape:connector-curvature="0"
       id="path4761-5-1"
       d="M 142.30355,119.38495 H 38.084062"
       style="fill:none;stroke:#000000;stroke-width:3.245;stroke-linecap:butt;stroke-linejoin:miter;stroke-miterlimit:4;stroke-dasharray:none;stroke-opacity:1" />
    <path
       style="fill:none;stroke:#000000;stroke-width:3.245;stroke-linecap:butt;stroke-linejoin:miter;stroke-miterlimit:4;stroke-dasharray:none;stroke-opacity:1"
       d="M 185.9983,119.38495 H 287.52405"
       id="path1835"
       inkscape:connector-curvature="0" />
    <path
       style="stroke-width:0.109983"
       inkscape:connector-curvature="0"
       id="XMLID_309_"
       d="m 189.43176,117.73461 v 3.29951 h -5.65315 c -0.84094,0 -1.54725,-0.63252 -1.63975,-1.46839 -0.19093,-1.72663 -1.64744,-3.02873 -3.38771,-3.02873 -1.52349,0 -2.87343,1.02395 -3.2829,2.48992 -0.19918,0.71291 -0.84874,1.20597 -1.58893,1.20597 -0.74019,0 -1.38986,-0.49306 -1.58893,-1.20597 -0.40947,-1.46608 -1.7594,-2.48992 -3.283,-2.48992 -1.5235,0 -2.87343,1.02395 -3.2829,2.48992 -0.19918,0.71291 -0.84874,1.20597 -1.58893,1.20597 -0.74019,0 -1.38986,-0.49306 -1.58893,-1.20597 -0.40947,-1.46608 -1.75941,-2.48992 -3.2829,-2.48992 -1.5236,0 -2.87354,1.02395 -3.28301,2.48992 -0.19918,0.71291 -0.84874,1.20597 -1.58893,1.20597 -0.74019,0 -1.38986,-0.49306 -1.58893,-1.20597 -0.40947,-1.46608 -1.7594,-2.48992 -3.2829,-2.48992 -1.74026,0 -3.19666,1.3021 -3.38771,3.02873 -0.0925,0.83587 -0.79881,1.46839 -1.63974,1.46839 h -5.65315 v -3.29951 h 4.34435 c 0.91792,-2.64433 3.42543,-4.49711 6.33625,-4.49711 1.88336,0 3.63199,0.7954 4.87183,2.10255 1.23974,-1.30715 2.98847,-2.10255 4.87194,-2.10255 1.88336,0 3.63198,0.7954 4.87183,2.10255 1.23973,-1.30715 2.98847,-2.10255 4.87183,-2.10255 1.88346,0 3.63209,0.7954 4.87193,2.10255 1.23974,-1.30715 2.98847,-2.10255 4.87183,-2.10255 2.91093,0 5.41845,1.85278 6.33626,4.49711 z" />
    <path
       inkscape:connector-curvature="0"
       id="path4761-5"
       d="M 181.8527,198.64615 H 287.86801"
       style="fill:none;stroke:#000000;stroke-width:3.245;stroke-linecap:butt;stroke-linejoin:miter;stroke-miterlimit:4;stroke-dasharray:none;stroke-opacity:1" />
    <path
       id="XMLID_1383_"
       d="m 134.32632,196.98909 h 16.51018 v -18.65876 h 3.3925 v 40.71003 h -3.3925 V 200.3816 h -16.51018 z"
       style="stroke-width:0.113083" />
    <path
       id="XMLID_1384_"
       d="m 169.83451,196.98909 h 16.51018 v 3.39251 h -16.51018 v 18.65876 h -3.3925 v -40.71003 h 3.3925 z"
       style="stroke-width:0.113083" />
    <path
       inkscape:connector-curvature="0"
       id="path4205"
       d="m 152.59141,181.96943 0.0323,-12.14971 h 27.47511"
       style="fill:none;stroke:#000000;stroke-width:3.5;stroke-linecap:butt;stroke-linejoin:miter;stroke-miterlimit:4;stroke-dasharray:none;stroke-opacity:1" />
    <path
       style="fill:none;stroke:#000000;stroke-width:3.5;stroke-linecap:butt;stroke-linejoin:miter;stroke-miterlimit:4;stroke-dasharray:none;stroke-opacity:1"
       d="m 152.59141,214.07438 0.0323,12.1497 h 27.47511"
       id="path4216"
       inkscape:connector-curvature="0" />
    <path
       inkscape:connector-curvature="0"
       id="path4761-5-0"
       d="M 39.085955,198.64615 H 134.32632"
       style="fill:none;stroke:#000000;stroke-width:3.245;stroke-linecap:butt;stroke-linejoin:miter;stroke-miterlimit:4;stroke-dasharray:none;stroke-opacity:1" />
    <path
       d="m 445.26046,6.5128757 q -1.28441,7.4210573 -3.54187,11.3391683 -3.30834,5.747427 -5.96798,7.472953 -1.18062,0.765459 -4.29435,0.765459 -0.60978,0 -1.23252,-0.103791 -0.60977,-0.103791 -1.23252,-0.2984 l 0.51895,-2.633697 h 1.21955 q -0.0259,0.207582 -0.0259,0.402191 0,0.544902 0.23353,0.856275 0.32435,0.441112 1.16765,0.441112 2.2834,0 4.26841,-1.985003 l -3.2565,-14.9848274 h -1.56984 l 0.27245,-1.3882048 h 3.56782 l 3.06184,13.6874402 q 2.08879,-3.126705 2.59477,-4.411118 1.63471,-4.034876 1.95906,-7.7713525 h -1.56984 l 0.27245,-1.3882048 z"
       style="font-style:italic;font-size:26.5705px;line-height:1.25;font-family:'DejaVu Serif';-inkscape-font-specification:'DejaVu Serif Italic';letter-spacing:0px;word-spacing:0px;stroke-width:0.664262"
       id="path1403" />
    <path
       d="m 453.45995,24.326008 q -3.15265,-1.414152 -4.76141,-4.475987 -1.60876,-3.074809 -1.60876,-7.680535 0,-4.6187002 1.60876,-7.6805351 1.60876,-3.0748088 4.76141,-4.488961308461 V 1.2714295 q -1.99798,1.3752309 -2.86723,3.8791891 -0.86925,2.4909844 -0.86925,7.0188674 0,4.514909 0.86925,7.018867 0.86925,2.490985 2.86723,3.866215 z"
       style="font-size:26.5705px;line-height:1.25;font-family:'DejaVu Serif';-inkscape-font-specification:'DejaVu Serif';letter-spacing:0px;word-spacing:0px;stroke-width:0.664262"
       id="path1405" />
    <path
       d="m 458.90898,7.7843156 h -2.10177 l 0.27245,-1.3882048 h 2.10177 l 0.83033,-4.2813793 h 2.40017 l -0.83033,4.2813793 h 4.48896 l -0.27245,1.3882048 h -4.48896 l -1.69958,8.7573664 q -0.19461,1.024937 -0.19461,1.621735 0,0.415164 0.0908,0.622746 0.2465,0.493007 1.15467,0.493007 0.93412,0 1.46605,-0.544902 0.5449,-0.557877 0.80438,-1.790395 h 1.80337 q -0.46706,1.881212 -1.55686,2.750461 -1.08981,0.86925 -2.97102,0.86925 -2.06285,0 -2.75046,-0.921145 -0.41517,-0.557877 -0.41517,-1.595787 0,-0.661668 0.16866,-1.50497 z"
       style="font-style:italic;font-size:26.5705px;line-height:1.25;font-family:'DejaVu Serif';-inkscape-font-specification:'DejaVu Serif Italic';letter-spacing:0px;word-spacing:0px;stroke-width:0.664262"
       id="path1407" />
    <path
       d="m 467.91285,24.326008 v -1.27144 q 1.99798,-1.37523 2.86723,-3.866215 0.88222,-2.503958 0.88222,-7.018867 0,-4.527883 -0.88222,-7.0188674 -0.86925,-2.5039582 -2.86723,-3.8791891 V -1.0408461e-5 Q 471.07848,1.4141421 472.68724,4.4889509 q 1.60876,3.0618349 1.60876,7.6805351 0,4.605726 -1.60876,7.680535 -1.60876,3.061835 -4.77439,4.475987 z"
       style="font-size:26.5705px;line-height:1.25;font-family:'DejaVu Serif';-inkscape-font-specification:'DejaVu Serif';letter-spacing:0px;word-spacing:0px;stroke-width:0.664262"
       id="path1409" />
    <path
       inkscape:connector-curvature="0"
       id="path3055-5"
       d="M 451.76093,61.760075 V 170.4076"
       style="fill:none;stroke:#ff0000;stroke-width:1.21291;stroke-linecap:butt;stroke-linejoin:miter;stroke-miterlimit:4;stroke-dasharray:3.63873, 3.63873;stroke-dashoffset:0;stroke-opacity:1" />
    <path
       d="m 142.57625,267.57187 h -3.216 v -1.032 q 2.424,-0.216 4.536,-1.344 l 0.792,0.36 v 14.208 q 0.792,0.432 3,0.72 l -0.072,0.816 h -8.352 l 0.048,-0.816 q 2.136,-0.24 3.264,-0.72 z"
       id="path1400"
       style="font-size:24px;line-height:1.25;font-family:Caladea;-inkscape-font-specification:Caladea;text-align:center;letter-spacing:0px;word-spacing:0px;text-anchor:middle" />
    <path
       d="m 150.43899,256.69838 h 16.63251 v 2.07582 h -16.63251 z m 0,5.29334 h 16.63251 v 2.07582 h -16.63251 z"
       style="font-size:26.5705px;line-height:1.25;font-family:'DejaVu Serif';-inkscape-font-specification:'DejaVu Serif';letter-spacing:0px;word-spacing:0px;stroke-width:0.664262"
       id="path1391" />
    <path
       d="m 178.33282,267.80402 q 1.98501,0 2.97102,-2.17961 0.98602,-2.17962 0.98602,-6.57776 0,-4.41112 -0.98602,-6.59073 -0.98601,-2.17961 -2.97102,-2.17961 -1.985,0 -2.97101,2.17961 -0.98602,2.17961 -0.98602,6.59073 0,4.39814 0.98602,6.57776 0.98601,2.17961 2.97101,2.17961 z m 0,1.28441 q -3.15265,0 -4.93007,-2.64667 -1.76445,-2.64667 -1.76445,-7.39511 0,-4.76141 1.76445,-7.40808 1.77742,-2.64667 4.93007,-2.64667 3.16563,0 4.93008,2.64667 1.76444,2.64667 1.76444,7.40808 0,4.74844 -1.76444,7.39511 -1.76445,2.64667 -4.93008,2.64667 z"
       style="font-size:26.5705px;line-height:1.25;font-family:'DejaVu Serif';-inkscape-font-specification:'DejaVu Serif';letter-spacing:0px;word-spacing:0px;stroke-width:0.664262"
       id="path1393" />
    <path
       d="m 189.29575,267.36291 q 0,-0.72654 0.49301,-1.23252 0.493,-0.50598 1.23251,-0.50598 0.71357,0 1.21955,0.50598 0.50598,0.50598 0.50598,1.23252 0,0.71356 -0.50598,1.21954 -0.50598,0.50598 -1.21955,0.50598 -0.73951,0 -1.23251,-0.49301 -0.49301,-0.50598 -0.49301,-1.23251 z"
       style="font-size:26.5705px;line-height:1.25;font-family:'DejaVu Serif';-inkscape-font-specification:'DejaVu Serif';letter-spacing:0px;word-spacing:0px;stroke-width:0.664262"
       id="path1395" />
    <path
       d="m 207.61486,263.41885 q 0,-2.07582 -1.03791,-3.21752 -1.02493,-1.15468 -2.89317,-1.15468 -1.86824,0 -2.90615,1.15468 -1.02494,1.1417 -1.02494,3.21752 0,2.08879 1.02494,3.24347 1.03791,1.1417 2.90615,1.1417 1.86824,0 2.89317,-1.1417 1.03791,-1.15468 1.03791,-3.24347 z m -0.53193,-9.40606 q 0,-1.76445 -0.89519,-2.75047 -0.8952,-0.98601 -2.50396,-0.98601 -1.59579,0 -2.50396,0.98601 -0.8952,0.98602 -0.8952,2.75047 0,1.77742 0.8952,2.76343 0.90817,0.98602 2.50396,0.98602 1.60876,0 2.50396,-0.98602 0.89519,-0.98601 0.89519,-2.76343 z m -1.40117,4.38517 q 2.20556,0.2984 3.43807,1.63471 1.23252,1.32333 1.23252,3.38618 0,2.72451 -1.72552,4.20353 -1.72553,1.46605 -4.94305,1.46605 -3.20455,0 -4.94305,-1.46605 -1.72552,-1.47902 -1.72552,-4.20353 0,-2.06285 1.23251,-3.38618 1.23252,-1.33631 3.45106,-1.63471 -1.95906,-0.3503 -3.00994,-1.47903 -1.03791,-1.1417 -1.03791,-2.90614 0,-2.3353 1.60876,-3.67161 1.60876,-1.34928 4.42409,-1.34928 2.81533,0 4.42409,1.34928 1.60876,1.33631 1.60876,3.67161 0,1.76444 -1.05088,2.90614 -1.03791,1.12873 -2.98399,1.47903 z"
       style="font-size:26.5705px;line-height:1.25;font-family:'DejaVu Serif';-inkscape-font-specification:'DejaVu Serif';letter-spacing:0px;word-spacing:0px;stroke-width:0.664262"
       id="path1397" />
    <path
       inkscape:connector-curvature="0"
       id="path818-3-5"
       d="M 280.65277,260.81692 H 503.30123"
       style="fill:none;stroke:#000000;stroke-width:7.827;stroke-linecap:round;stroke-linejoin:miter;stroke-miterlimit:4;stroke-dasharray:none;stroke-opacity:1" />
    <path
       style="fill:none;stroke:#000000;stroke-width:3.01516;stroke-linecap:butt;stroke-linejoin:miter;stroke-miterlimit:4;stroke-dasharray:none;stroke-opacity:1"
       d="m 349.45227,260.81692 -29.6112,-35.22729"
       id="path832-67-5"
       inkscape:connector-curvature="0" />
    <path
       style="fill:none;stroke:#000000;stroke-width:3.01516;stroke-linecap:butt;stroke-linejoin:miter;stroke-miterlimit:4;stroke-dasharray:none;stroke-opacity:1"
       d="M 382.12555,260.81692 352.51434,225.58963"
       id="path832-3-5-6"
       inkscape:connector-curvature="0" />
    <path
       style="fill:none;stroke:#000000;stroke-width:3.01516;stroke-linecap:butt;stroke-linejoin:miter;stroke-miterlimit:4;stroke-dasharray:none;stroke-opacity:1"
       d="M 316.779,260.81692 287.16779,225.58963"
       id="path832-6-3-2"
       inkscape:connector-curvature="0" />
    <path
       style="fill:none;stroke:#000000;stroke-width:3.01516;stroke-linecap:butt;stroke-linejoin:miter;stroke-miterlimit:4;stroke-dasharray:none;stroke-opacity:1"
       d="m 414.79882,260.81692 -29.6112,-35.22729"
       id="path832-7-5-9"
       inkscape:connector-curvature="0" />
    <path
       style="fill:none;stroke:#000000;stroke-width:3.01516;stroke-linecap:butt;stroke-linejoin:miter;stroke-miterlimit:4;stroke-dasharray:none;stroke-opacity:1"
       d="M 447.47209,260.81692 417.86088,225.58963"
       id="path832-5-6-1"
       inkscape:connector-curvature="0" />
    <path
       style="fill:none;stroke:#000000;stroke-width:3.01516;stroke-linecap:butt;stroke-linejoin:miter;stroke-miterlimit:4;stroke-dasharray:none;stroke-opacity:1"
       d="m 480.14536,260.81692 -29.6112,-35.22729"
       id="path832-35-2-2"
       inkscape:connector-curvature="0" />
    <path
       d="m 350.97698,296.67261 -1.20079,6.34704 q -0.10293,0.446 -0.30878,1.06355 -0.17154,0.61755 -0.446,1.50957 h -2.98483 q 0.54894,-1.74973 0.78909,-2.60743 0.54894,-1.78403 0.68617,-2.60743 l 4.01407,-22.47194 q 0.30878,-1.81834 1.68111,-3.08775 0.68616,-0.65186 2.23004,-1.47525 1.54387,-0.8234 3.39652,-0.8234 2.77897,0 4.66593,1.78403 0.44601,0.4117 0.78909,1.09786 0.48032,0.92633 0.48032,1.88696 0,0.68617 -0.24016,1.40664 -0.51463,1.57818 -1.54388,2.71036 -0.61755,0.68616 -2.02419,1.71541 1.50957,0.78909 2.29866,1.98988 0.8234,1.20079 1.06356,3.25929 0.0686,0.54893 0.0686,0.96063 0,1.98988 -0.82339,3.91115 -0.96064,2.29866 -2.64174,3.63668 -1.09787,0.89202 -2.33297,1.26941 -1.20079,0.4117 -2.60743,0.4117 -0.58324,0 -0.89202,-0.0343 -0.37739,-0.10293 -0.51462,-0.10293 -1.81834,-0.30877 -3.60237,-1.74972 z m 3.2936,-19.21265 -3.08775,17.29138 q 0.37739,0.44601 0.8234,0.92633 0.44601,0.44601 1.13217,0.72047 0.68617,0.27447 1.20079,0.4117 0.54894,0.10293 1.20079,0.10293 1.02925,0 1.98988,-0.48032 0.96064,-0.48031 1.6468,-1.37233 0.58324,-0.72047 0.89202,-1.6468 0.72047,-1.88696 0.72047,-4.04838 0,-2.74466 -1.20079,-4.46008 -0.24016,-0.37739 -0.54893,-0.54893 -0.27447,-0.20585 -0.75478,-0.20585 -0.27447,0.0343 -0.4117,0.0343 -0.37739,0.0686 -0.65186,0.10292 -0.24016,0 -0.58324,0 -0.54893,0 -0.8234,-0.17154 -0.48032,-0.27446 -0.48032,-0.65186 0,-0.30877 0.20585,-0.54893 0.20585,-0.27447 0.54894,-0.51462 0.34308,-0.24016 1.02924,-0.24016 0.4117,0 0.92633,0.10292 0.54893,0.0686 0.72047,0.10293 0.37739,0.0343 0.75479,-0.27447 0.4117,-0.44601 0.58324,-0.61755 0.51462,-0.54893 0.92632,-1.71541 0.44601,-1.20079 0.44601,-2.43589 0,-0.96063 -0.24016,-1.61249 -0.20585,-0.65186 -0.8234,-1.20079 -0.92632,-0.8234 -2.02419,-0.8234 -0.27446,0 -0.58324,0.0686 -0.27447,0.0686 -0.51462,0.13723 -1.02925,0.37739 -1.92127,1.40664 -0.89201,0.99494 -1.09786,2.16142 z"
       style="font-style:italic;font-size:34.3083px;line-height:1.25;font-family:Atene;-inkscape-font-specification:'Atene Italic';text-align:center;letter-spacing:0px;word-spacing:0px;text-anchor:middle;stroke-width:0.536067"
       id="path1388" />
    <path
       d="m 374.34691,306.26251 v 1.776 h -9.96 v -1.392 q 4.032,-3.816 5.568,-6.12 1.536,-2.304 1.536,-4.392 0,-3 -2.472,-3 -1.128,0 -1.776,0.552 -0.648,0.552 -0.648,1.416 0,0.84 0.504,1.488 -0.528,0.528 -1.2,0.528 -0.648,0 -1.104,-0.456 -0.432,-0.456 -0.432,-1.368 0,-1.656 1.32,-2.496 1.344,-0.864 3.48,-0.864 2.136,0 3.336,1.152 1.224,1.152 1.224,3.264 0,2.112 -1.56,4.44 -1.56,2.304 -5.256,5.472 z"
       id="path1385"
       style="font-size:24px;line-height:1.25;font-family:Caladea;-inkscape-font-specification:Caladea;text-align:center;letter-spacing:0px;word-spacing:0px;text-anchor:middle" />
    <path
       d="m 377.00164,283.43703 h 16.63251 v 2.07582 h -16.63251 z m 0,5.29334 h 16.63251 v 2.07582 h -16.63251 z"
       style="font-size:26.5705px;line-height:1.25;font-family:'DejaVu Serif';-inkscape-font-specification:'DejaVu Serif';letter-spacing:0px;word-spacing:0px;stroke-width:0.664262"
       id="path1376" />
    <path
       d="m 404.89548,294.54266 q 1.985,0 2.97101,-2.17961 0.98602,-2.17961 0.98602,-6.57775 0,-4.41112 -0.98602,-6.59073 -0.98601,-2.17961 -2.97101,-2.17961 -1.98501,0 -2.97102,2.17961 -0.98602,2.17961 -0.98602,6.59073 0,4.39814 0.98602,6.57775 0.98601,2.17961 2.97102,2.17961 z m 0,1.28442 q -3.15266,0 -4.93008,-2.64667 -1.76444,-2.64667 -1.76444,-7.39511 0,-4.76141 1.76444,-7.40809 1.77742,-2.64667 4.93008,-2.64667 3.16562,0 4.93007,2.64667 1.76445,2.64668 1.76445,7.40809 0,4.74844 -1.76445,7.39511 -1.76445,2.64667 -4.93007,2.64667 z"
       style="font-size:26.5705px;line-height:1.25;font-family:'DejaVu Serif';-inkscape-font-specification:'DejaVu Serif';letter-spacing:0px;word-spacing:0px;stroke-width:0.664262"
       id="path1378" />
    <path
       d="m 415.8584,294.10155 q 0,-0.72653 0.49301,-1.23252 0.49301,-0.50598 1.23252,-0.50598 0.71356,0 1.21954,0.50598 0.50598,0.50599 0.50598,1.23252 0,0.71357 -0.50598,1.21955 -0.50598,0.50598 -1.21954,0.50598 -0.73951,0 -1.23252,-0.49301 -0.49301,-0.50598 -0.49301,-1.23252 z"
       style="font-size:26.5705px;line-height:1.25;font-family:'DejaVu Serif';-inkscape-font-specification:'DejaVu Serif';letter-spacing:0px;word-spacing:0px;stroke-width:0.664262"
       id="path1380" />
    <path
       d="m 425.19959,280.69954 h -1.45307 v -3.45105 q 1.3882,-0.73951 2.78938,-1.12873 1.41416,-0.38922 2.76344,-0.38922 3.02291,0 4.77439,1.46605 1.75147,1.46605 1.75147,3.98298 0,2.84128 -3.97001,6.79831 -0.31137,0.2984 -0.46706,0.45409 l -4.89115,4.89115 h 8.08273 v -2.38719 h 1.51794 v 4.51491 h -12.49384 v -1.41416 l 5.87716,-5.86419 q 1.94608,-1.94608 2.77641,-3.56781 0.83033,-1.63471 0.83033,-3.42511 0,-1.95905 -1.02494,-3.06183 -1.01196,-1.10278 -2.80235,-1.10278 -1.85527,0 -2.86723,0.92114 -1.01196,0.92115 -1.1936,2.76344 z"
       style="font-size:26.5705px;line-height:1.25;font-family:'DejaVu Serif';-inkscape-font-specification:'DejaVu Serif';letter-spacing:0px;word-spacing:0px;stroke-width:0.664262"
       id="path1382" />
  </g>
</svg>
